<?xml version="1.0" encoding="UTF-8" standalone="no"?>
<!-- Created with Inkscape (http://www.inkscape.org/) -->

<svg
   xmlns:dc="http://purl.org/dc/elements/1.1/"
   xmlns:cc="http://creativecommons.org/ns#"
   xmlns:rdf="http://www.w3.org/1999/02/22-rdf-syntax-ns#"
   xmlns:svg="http://www.w3.org/2000/svg"
   xmlns="http://www.w3.org/2000/svg"
   xmlns:sodipodi="http://sodipodi.sourceforge.net/DTD/sodipodi-0.dtd"
   xmlns:inkscape="http://www.inkscape.org/namespaces/inkscape"
   width="10237.445mm"
   height="1440.3741mm"
   viewBox="0 0 10237.445 1440.3741"
   version="1.1"
   id="svg8"
   inkscape:version="0.92.4 5da689c313, 2019-01-14"
   sodipodi:docname="backgroundloadLandscapeFull.svg">
  <defs
     id="defs2" />
  <sodipodi:namedview
     id="base"
     pagecolor="#ffffff"
     bordercolor="#666666"
     borderopacity="1.0"
     inkscape:pageopacity="0.0"
     inkscape:pageshadow="2"
     inkscape:zoom="0.044194174"
     inkscape:cx="19358.67"
     inkscape:cy="4548.2601"
     inkscape:document-units="mm"
     inkscape:current-layer="layer1"
     showgrid="false"
     inkscape:window-width="2560"
     inkscape:window-height="1384"
     inkscape:window-x="0"
     inkscape:window-y="28"
     inkscape:window-maximized="1" />
  <metadata
     id="metadata5">
    <rdf:RDF>
      <cc:Work
         rdf:about="">
        <dc:format>image/svg+xml</dc:format>
        <dc:type
           rdf:resource="http://purl.org/dc/dcmitype/StillImage" />
        <dc:title></dc:title>
      </cc:Work>
    </rdf:RDF>
  </metadata>
  <g
     inkscape:label="Layer 1"
     inkscape:groupmode="layer"
     id="layer1"
     transform="translate(1.4967093,1777.6047)"
     style="opacity:0.98999999">
    <rect
       style="opacity:1;fill:#1a0847;fill-opacity:1;stroke-width:2.66256094"
       id="rect817"
       width="2560"
       height="1440"
       x="-1.4967093"
       y="-1777.6047"
       ry="0.012453345" />
    <rect
       style="opacity:1;fill:#1a0847;fill-opacity:1;stroke-width:2.66256094"
       id="rect817-1"
       width="2560"
       height="1440"
       x="2557.0066"
       y="-1777.6047"
       ry="0.012453346" />
    <rect
       style="opacity:1;fill:#1a0847;fill-opacity:1;stroke-width:2.66256094"
       id="rect817-1-1"
       width="2560"
       height="1440"
       x="5116.2583"
       y="-1777.2306"
       ry="0.012453347" />
    <rect
       style="opacity:1;fill:#1a0847;fill-opacity:1;stroke-width:2.66256094"
       id="rect817-1-1-5"
       width="2560"
       height="1440"
       x="7675.9487"
       y="-1777.6047"
       ry="0.012453347" />
    <rect
       style="fill:#06063c;fill-opacity:1;stroke-width:0.07676534"
       id="rect1584-2-9"
       width="244.57449"
       height="50"
       x="6110.9761"
       y="-530.2832"
       ry="0.1628415" />
    <path
       inkscape:connector-curvature="0"
       style="fill:#06063c;fill-opacity:1;stroke-width:0.1862691"
       d="m 6913.5376,-785.8803 -578.3357,259.9246 c -0.082,0.037 -0.1187,0.1327 -0.082,0.215 l 20.3631,45.3089 c 0.037,0.082 0.1332,0.1186 0.2155,0.082 L 7035.5066,-785.88 Z"
       id="rect1584-8-3-8" />
    <rect
       style="fill:#06063c;fill-opacity:1;stroke-width:0.08820387"
       id="rect1584-7-7-4"
       width="322.89117"
       height="50"
       x="6913.5059"
       y="-785.87952"
       ry="0.1628415" />
    <path
       style="fill:#06063c;fill-opacity:1;stroke-width:0.26458332"
       d="m 6007.6337,-620.4827 a 113.74991,113.74991 0 0 0 -113.7501,113.7496 113.74991,113.74991 0 0 0 113.7501,113.75017 113.74991,113.74991 0 0 0 113.7497,-113.75017 113.74991,113.74991 0 0 0 -113.7497,-113.7496 z m 6e-4,49.9995 a 63.749999,63.749999 0 0 1 63.7496,63.7501 63.749999,63.749999 0 0 1 -63.7496,63.75014 63.749999,63.749999 0 0 1 -63.7502,-63.75014 63.749999,63.749999 0 0 1 63.7502,-63.7501 z"
       id="path1654-8"
       inkscape:connector-curvature="0" />
    <rect
       style="fill:#06063c;fill-opacity:1;stroke-width:0.08820387"
       id="rect1584-7-7-9-1"
       width="322.89117"
       height="50"
       x="6913.5063"
       y="-1069.0516"
       ry="0.1628415" />
    <path
       inkscape:connector-curvature="0"
       style="fill:#06063c;fill-opacity:1;stroke-width:0.1862691"
       d="m 6355.8604,-1324.5394 578.3359,259.9246 c 0.082,0.037 0.1186,0.1327 0.082,0.215 l -20.3631,45.3088 c -0.037,0.082 -0.1332,0.1187 -0.2155,0.082 l -679.8086,-305.5301 z"
       id="rect1584-8-3-2-03" />
    <path
       style="fill:#06063c;fill-opacity:1;stroke-width:0.07676534"
       d="m 6111.4486,-1374.5396 c -0.09,0 -0.1628,0.073 -0.1628,0.1628 v 49.6745 c 0,0.09 0.073,0.1628 0.1628,0.1628 h 244.1737 l -111.2511,-50.0001 z"
       id="rect1584-2-2-0"
       inkscape:connector-curvature="0" />
    <rect
       style="fill:#06063c;fill-opacity:1;stroke-width:0.08820387"
       id="rect1584-7-7-9-9-4"
       width="322.89117"
       height="50"
       x="5788.5576"
       y="-1374.5396"
       ry="0.1628415" />
    <rect
       style="fill:#06063c;fill-opacity:1;stroke-width:0.12983043"
       id="rect1584-2-7-4"
       width="699.57416"
       height="50"
       x="-6475.2861"
       y="-929.90479"
       ry="0.1628415"
       transform="scale(-1,1)" />
    <path
       inkscape:connector-curvature="0"
       style="fill:#06063c;fill-opacity:1;stroke-width:0.26458332"
       d="m 6575.6345,-1020.1042 a 113.74991,113.74991 0 0 1 113.7502,113.7496 113.74991,113.74991 0 0 1 -113.7502,113.7502 113.74991,113.74991 0 0 1 -113.7496,-113.7502 113.74991,113.74991 0 0 1 113.7496,-113.7496 z m 0,49.9995 a 63.749999,63.749999 0 0 0 -63.7496,63.7501 63.749999,63.749999 0 0 0 63.7496,63.7501 63.749999,63.749999 0 0 0 63.7501,-63.7501 63.749999,63.749999 0 0 0 -63.7501,-63.7501 z"
       id="path1654-3-4" />
    <rect
       style="fill:#06063c;fill-opacity:1;stroke-width:0.08820387"
       id="rect1584-7-7-9-6-4"
       width="322.89117"
       height="50"
       x="6913.5063"
       y="-1349.4457"
       ry="0.1628415" />
    <path
       style="fill:#06063c;fill-opacity:1;stroke-width:0.1862691"
       d="m 6319.4674,-1604.9331 v 38.4612 l 594.232,267.069 c 0.082,0.037 0.1784,-2e-4 0.2155,-0.082 l 20.3631,-45.3089 c 0.037,-0.082 0,-0.1779 -0.082,-0.215 l -578.3355,-259.9241 z"
       id="rect1584-8-3-2-1-7"
       inkscape:connector-curvature="0" />
    <path
       inkscape:connector-curvature="0"
       style="fill:#06063c;fill-opacity:1;stroke-width:0.26458332"
       d="m 6242.2088,-1736.5225 a 113.74991,113.74991 0 0 1 113.7502,113.7496 113.74991,113.74991 0 0 1 -113.7502,113.7502 113.74991,113.74991 0 0 1 -113.7496,-113.7502 113.74991,113.74991 0 0 1 113.7496,-113.7496 z m 0,49.9995 a 63.749999,63.749999 0 0 0 -63.7501,63.7501 63.749999,63.749999 0 0 0 63.7496,63.7501 63.749999,63.749999 0 0 0 63.7501,-63.7501 63.749999,63.749999 0 0 0 -63.7501,-63.7501 z"
       id="path1654-3-2-63" />
    <rect
       style="fill:#06063c;fill-opacity:1;stroke-width:0.07676534"
       id="rect1584-2-3-1"
       width="244.57449"
       height="50"
       x="-8361.8184"
       y="-530.28333"
       ry="0.1628415"
       transform="scale(-1,1)" />
    <path
       inkscape:connector-curvature="0"
       style="fill:#06063c;fill-opacity:1;stroke-width:0.1862691"
       d="m 7559.2568,-785.8803 578.3357,259.9246 c 0.082,0.037 0.1186,0.1327 0.082,0.215 l -20.3631,45.3089 c -0.037,0.082 -0.1332,0.1186 -0.2155,0.082 L 7437.2878,-785.88 Z"
       id="rect1584-8-3-5-7" />
    <rect
       style="fill:#06063c;fill-opacity:1;stroke-width:0.08820387"
       id="rect1584-7-7-6-5"
       width="322.89117"
       height="50"
       x="-7559.2891"
       y="-785.87952"
       ry="0.1628415"
       transform="scale(-1,1)" />
    <rect
       style="fill:#06063c;fill-opacity:1;stroke-width:0.08820387"
       id="rect1584-7-7-9-91-9"
       width="322.89117"
       height="50"
       x="-7559.2886"
       y="-1069.0516"
       ry="0.1628415"
       transform="scale(-1,1)" />
    <path
       inkscape:connector-curvature="0"
       style="fill:#06063c;fill-opacity:1;stroke-width:0.1862691"
       d="m 8116.934,-1324.5395 -578.3359,259.9247 c -0.082,0.037 -0.1186,0.1327 -0.082,0.215 l 20.3631,45.3088 c 0.037,0.082 0.1332,0.1187 0.2155,0.082 l 679.8086,-305.5302 z"
       id="rect1584-8-3-2-2-6" />
    <path
       inkscape:connector-curvature="0"
       style="fill:#06063c;fill-opacity:1;stroke-width:0.07676534"
       d="m 8361.3458,-1374.5396 c 0.09,0 0.1628,0.073 0.1628,0.1628 v 49.6745 c 0,0.09 -0.072,0.1627 -0.1628,0.1627 h -244.1737 l 111.2511,-50 z"
       id="rect1584-2-2-7-2" />
    <rect
       style="fill:#06063c;fill-opacity:1;stroke-width:0.12983043"
       id="rect1584-2-7-9-1"
       width="699.57416"
       height="50"
       x="7997.5088"
       y="-929.90479"
       ry="0.1628415" />
    <path
       inkscape:connector-curvature="0"
       style="fill:#06063c;fill-opacity:1;stroke-width:0.26458332"
       d="m 7897.1599,-1020.1042 a 113.74991,113.74991 0 0 0 -113.7502,113.7496 113.74991,113.74991 0 0 0 113.7502,113.7502 113.74991,113.74991 0 0 0 113.7496,-113.7502 113.74991,113.74991 0 0 0 -113.7496,-113.7496 z m 0,49.9995 a 63.749999,63.749999 0 0 1 63.7495,63.7501 63.749999,63.749999 0 0 1 -63.7495,63.7501 63.749999,63.749999 0 0 1 -63.7501,-63.7501 63.749999,63.749999 0 0 1 63.7501,-63.7501 z"
       id="path1654-3-3-7" />
    <rect
       style="fill:#06063c;fill-opacity:1;stroke-width:0.08820387"
       id="rect1584-7-7-9-6-6-8"
       width="322.89117"
       height="50"
       x="-7559.2886"
       y="-1349.4457"
       ry="0.1628415"
       transform="scale(-1,1)" />
    <path
       style="fill:#06063c;fill-opacity:1;stroke-width:0.1862691"
       d="m 8153.327,-1604.9332 v 38.4612 l -594.232,267.069 c -0.082,0.037 -0.1784,-10e-5 -0.2155,-0.082 l -20.3631,-45.3088 c -0.037,-0.082 0,-0.178 0.082,-0.215 l 578.3355,-259.9242 z"
       id="rect1584-8-3-2-1-0-57"
       inkscape:connector-curvature="0" />
    <path
       inkscape:connector-curvature="0"
       style="fill:#06063c;fill-opacity:1;stroke-width:0.26458332"
       d="m 8230.5856,-1736.5226 a 113.74991,113.74991 0 0 0 -113.7502,113.7496 113.74991,113.74991 0 0 0 113.7502,113.7502 113.74991,113.74991 0 0 0 113.7496,-113.7502 113.74991,113.74991 0 0 0 -113.7496,-113.7496 z m 0,49.9995 a 63.749999,63.749999 0 0 1 63.7501,63.7501 63.749999,63.749999 0 0 1 -63.7496,63.7501 63.749999,63.749999 0 0 1 -63.7501,-63.7501 63.749999,63.749999 0 0 1 63.7501,-63.7501 z"
       id="path1654-3-2-6-4" />
    <rect
       style="opacity:0.98999999;fill:#06063c;fill-opacity:1;stroke-width:0.07676534"
       id="rect1584-2-4-1"
       width="244.57449"
       height="50"
       x="9006.6553"
       y="-530.28333"
       ry="0.1628415" />
    <path
       inkscape:connector-curvature="0"
       style="opacity:0.98999999;fill:#06063c;fill-opacity:1;stroke-width:0.1862691"
       d="m 9809.2172,-785.8803 -578.3357,259.9246 c -0.082,0.037 -0.1186,0.1326 -0.082,0.215 l 20.3631,45.3088 c 0.037,0.082 0.1333,0.1187 0.2153,0.082 l 679.8086,-305.5302 z"
       id="rect1584-8-3-7-8" />
    <path
       inkscape:connector-curvature="0"
       style="opacity:0.98999999;fill:#06063c;fill-opacity:1;stroke-width:0.26458332"
       d="m 8903.3133,-620.4827 a 113.74991,113.74991 0 0 0 -113.7502,113.7497 113.74991,113.74991 0 0 0 113.7502,113.75007 113.74991,113.74991 0 0 0 113.7496,-113.75007 113.74991,113.74991 0 0 0 -113.7496,-113.7497 z m 0,49.9995 a 63.749999,63.749999 0 0 1 63.7495,63.7502 63.749999,63.749999 0 0 1 -63.7495,63.75004 63.749999,63.749999 0 0 1 -63.75,-63.75004 63.749999,63.749999 0 0 1 63.75,-63.7502 z"
       id="path1654-4-5" />
    <path
       inkscape:connector-curvature="0"
       style="opacity:0.98999999;fill:#06063c;fill-opacity:1;stroke-width:0.1862691"
       d="m 9251.5401,-1324.5394 578.3358,259.9246 c 0.082,0.037 0.1185,0.1326 0.082,0.215 l -20.3631,45.3087 c -0.037,0.082 -0.1331,0.1188 -0.2154,0.082 l -679.8087,-305.5301 z"
       id="rect1584-8-3-2-0-9" />
    <path
       inkscape:connector-curvature="0"
       style="opacity:0.98999999;fill:#06063c;fill-opacity:1;stroke-width:0.07676534"
       d="m 9007.1281,-1374.5396 c -0.09,0 -0.1627,0.073 -0.1627,0.1628 v 49.6746 c 0,0.09 0.072,0.1628 0.1627,0.1628 h 244.1739 l -111.2512,-50.0002 z"
       id="rect1584-2-2-3-7" />
    <rect
       style="opacity:0.98999999;fill:#06063c;fill-opacity:1;stroke-width:0.08820387"
       id="rect1584-7-7-9-9-6-5"
       width="322.89117"
       height="50"
       x="8684.2373"
       y="-1374.5396"
       ry="0.1628415" />
    <rect
       style="opacity:0.98999999;fill:#06063c;fill-opacity:1;stroke-width:0.12983043"
       id="rect1584-2-7-1-3"
       width="699.57416"
       height="50"
       x="-9370.9658"
       y="-929.90479"
       ry="0.1628415"
       transform="scale(-1,1)" />
    <path
       inkscape:connector-curvature="0"
       style="opacity:0.98999999;fill:#06063c;fill-opacity:1;stroke-width:0.26458332"
       d="m 9471.3142,-1020.1042 a 113.74991,113.74991 0 0 1 113.7499,113.7495 113.74991,113.74991 0 0 1 -113.7499,113.7502 113.74991,113.74991 0 0 1 -113.7497,-113.7502 113.74991,113.74991 0 0 1 113.7497,-113.7495 z m 0,49.9995 a 63.749999,63.749999 0 0 0 -63.7498,63.75 63.749999,63.749999 0 0 0 63.7498,63.7501 63.749999,63.749999 0 0 0 63.75,-63.7501 63.749999,63.749999 0 0 0 -63.75,-63.75 z"
       id="path1654-3-0-8" />
    <path
       style="opacity:0.98999999;fill:#06063c;fill-opacity:1;stroke-width:0.1862691"
       d="m 9215.147,-1604.9332 v 38.4613 l 594.2319,267.069 c 0.082,0.037 0.1786,-10e-5 0.2156,-0.082 l 20.3632,-45.3087 c 0.037,-0.082 0,-0.1781 -0.082,-0.215 l -578.3355,-259.9243 z"
       id="rect1584-8-3-2-1-2-8"
       inkscape:connector-curvature="0" />
    <path
       inkscape:connector-curvature="0"
       style="opacity:0.98999999;fill:#06063c;fill-opacity:1;stroke-width:0.26458332"
       d="m 9137.8884,-1736.5226 a 113.74991,113.74991 0 0 1 113.7502,113.7496 113.74991,113.74991 0 0 1 -113.7502,113.7502 113.74991,113.74991 0 0 1 -113.7497,-113.7502 113.74991,113.74991 0 0 1 113.7497,-113.7496 z m 0,49.9995 a 63.749999,63.749999 0 0 0 -63.7501,63.7501 63.749999,63.749999 0 0 0 63.7495,63.7501 63.749999,63.749999 0 0 0 63.7503,-63.7501 63.749999,63.749999 0 0 0 -63.7503,-63.7501 z"
       id="path1654-3-2-0-3" />
    <path
       inkscape:connector-curvature="0"
       style="fill:#06063c;fill-opacity:1;stroke-width:0.26458332"
       d="m 8465.1606,-620.4827 a 113.74991,113.74991 0 0 1 113.7502,113.7497 113.74991,113.74991 0 0 1 -113.7502,113.75007 113.74991,113.74991 0 0 1 -113.7496,-113.75007 113.74991,113.74991 0 0 1 113.7496,-113.7497 z m 0,49.9996 a 63.749999,63.749999 0 0 0 -63.7496,63.7501 63.749999,63.749999 0 0 0 63.7496,63.75006 63.749999,63.749999 0 0 0 63.7501,-63.75006 63.749999,63.749999 0 0 0 -63.7501,-63.7501 z"
       id="path1654-2-1" />
    <rect
       style="fill:#06063c;fill-opacity:1;stroke-width:0.08820387"
       id="rect1584-7-7-9-9-0-8"
       width="322.89117"
       height="50"
       x="-8684.2373"
       y="-1374.5397"
       ry="0.1628415"
       transform="scale(-1,1)" />
    <rect
       style="opacity:0.98999999;fill:#06063c;fill-opacity:1;stroke-width:0.08820387"
       id="rect1584-7-7-6-4-4"
       width="322.89117"
       height="50"
       x="-10454.968"
       y="-785.87939"
       ry="0.1628415"
       transform="scale(-1,1)" />
    <rect
       style="opacity:0.98999999;fill:#06063c;fill-opacity:1;stroke-width:0.08820387"
       id="rect1584-7-7-9-91-0-3"
       width="322.89117"
       height="50"
       x="-10454.967"
       y="-1069.0515"
       ry="0.1628415"
       transform="scale(-1,1)" />
    <rect
       style="opacity:0.98999999;fill:#06063c;fill-opacity:1;stroke-width:0.08820387"
       id="rect1584-7-7-9-6-6-1-8"
       width="322.89117"
       height="50"
       x="-10454.967"
       y="-1349.4456"
       ry="0.1628415"
       transform="scale(-1,1)" />
    <rect
       style="opacity:0.98999999;fill:#06063c;fill-opacity:1;stroke-width:0.08820387"
       id="rect1584-7-7-8-9"
       width="322.89117"
       height="50"
       x="9809.1846"
       y="-785.87952"
       ry="0.1628415" />
    <rect
       style="opacity:0.98999999;fill:#06063c;fill-opacity:1;stroke-width:0.08820387"
       id="rect1584-7-7-9-5-7"
       width="322.89117"
       height="50"
       x="9809.1846"
       y="-1069.0515"
       ry="0.1628415" />
    <rect
       style="opacity:0.98999999;fill:#06063c;fill-opacity:1;stroke-width:0.08820387"
       id="rect1584-7-7-9-6-63-7"
       width="322.89117"
       height="50"
       x="9809.1846"
       y="-1349.4456"
       ry="0.1628415" />
  </g>
  <g
     inkscape:groupmode="layer"
     id="layer2"
     inkscape:label="Layer 2"
     transform="translate(1.4967093,-485.39522)">
    <rect
       style="fill:#06063c;fill-opacity:1;stroke-width:0.07676534"
       id="rect1584-2"
       width="244.57449"
       height="50"
       x="319.61667"
       y="1732.7168"
       ry="0.16284148" />
    <path
       inkscape:connector-curvature="0"
       style="fill:#06063c;fill-opacity:1;stroke-width:0.1862691"
       d="m 1122.1785,1477.1197 -578.3357,259.9246 c -0.0823,0.037 -0.11864,0.1327 -0.0817,0.215 l 20.36307,45.3089 c 0.037,0.082 0.13322,0.1186 0.2155,0.082 L 1244.1478,1477.12 Z"
       id="rect1584-8-3" />
    <rect
       style="fill:#06063c;fill-opacity:1;stroke-width:0.08820387"
       id="rect1584-7-7"
       width="322.89117"
       height="50"
       x="1122.1466"
       y="1477.1205"
       ry="0.1628415" />
    <path
       style="fill:#06063c;fill-opacity:1;stroke-width:0.99999994"
       d="m 817.41602,6207.9395 a 429.92091,429.92091 0 0 0 -429.92188,429.9199 429.92091,429.92091 0 0 0 429.92188,429.9218 429.92091,429.92091 0 0 0 429.91988,-429.9218 429.92091,429.92091 0 0 0 -429.91988,-429.9199 z m 0.002,188.9746 a 240.94488,240.94488 0 0 1 240.94338,240.9453 240.94488,240.94488 0 0 1 -240.94338,240.9453 240.94488,240.94488 0 0 1 -240.94531,-240.9453 240.94488,240.94488 0 0 1 240.94531,-240.9453 z"
       transform="scale(0.26458333)"
       id="path1654"
       inkscape:connector-curvature="0" />
    <rect
       style="fill:#06063c;fill-opacity:1;stroke-width:0.08820387"
       id="rect1584-7-7-9"
       width="322.89117"
       height="50"
       x="1122.147"
       y="1193.9484"
       ry="0.1628415" />
    <path
       inkscape:connector-curvature="0"
       style="fill:#06063c;fill-opacity:1;stroke-width:0.1862691"
       d="m 564.50134,938.46064 578.33586,259.92456 c 0.082,0.037 0.1186,0.1327 0.082,0.215 l -20.3631,45.3088 c -0.037,0.082 -0.1332,0.1187 -0.2155,0.082 L 442.53204,938.46094 Z"
       id="rect1584-8-3-2" />
    <path
       style="fill:#06063c;fill-opacity:1;stroke-width:0.29013672"
       d="m 1209.7871,3357.9609 c -0.341,0 -0.6152,0.2743 -0.6152,0.6153 v 187.7461 c 0,0.3409 0.2742,0.6152 0.6152,0.6152 h 922.8613 l -420.4765,-188.9766 z"
       id="rect1584-2-2"
       transform="scale(0.26458333)"
       inkscape:connector-curvature="0" />
    <rect
       style="fill:#06063c;fill-opacity:1;stroke-width:0.08820387"
       id="rect1584-7-7-9-9"
       width="322.89117"
       height="50"
       x="-2.8016138"
       y="888.46045"
       ry="0.1628415" />
    <rect
       style="fill:#06063c;fill-opacity:1;stroke-width:0.12983043"
       id="rect1584-2-7"
       width="699.57416"
       height="50"
       x="-683.92688"
       y="1333.0952"
       ry="0.1628415"
       transform="scale(-1,1)" />
    <path
       inkscape:connector-curvature="0"
       style="fill:#06063c;fill-opacity:1;stroke-width:0.26458332"
       d="m 784.27543,1242.8958 a 113.74991,113.74991 0 0 1 113.75016,113.7496 113.74991,113.74991 0 0 1 -113.75016,113.7502 113.74991,113.74991 0 0 1 -113.74964,-113.7502 113.74991,113.74991 0 0 1 113.74964,-113.7496 z m -5.3e-4,49.9995 a 63.749999,63.749999 0 0 0 -63.74959,63.7501 63.749999,63.749999 0 0 0 63.74959,63.7501 63.749999,63.749999 0 0 0 63.75011,-63.7501 63.749999,63.749999 0 0 0 -63.75011,-63.7501 z"
       id="path1654-3" />
    <rect
       style="fill:#06063c;fill-opacity:1;stroke-width:0.08820387"
       id="rect1584-7-7-9-6"
       width="322.89117"
       height="50"
       x="1122.147"
       y="913.55438"
       ry="0.1628415" />
    <path
       style="fill:#06063c;fill-opacity:1;stroke-width:0.1862691"
       d="m 528.10833,658.06693 v 38.46123 l 594.23197,267.06896 c 0.082,0.0366 0.1784,-1.6e-4 0.2155,-0.0822 l 20.3631,-45.30883 c 0.037,-0.0823 3e-4,-0.17799 -0.082,-0.21501 L 564.50145,658.06693 Z"
       id="rect1584-8-3-2-1"
       inkscape:connector-curvature="0" />
    <path
       inkscape:connector-curvature="0"
       style="fill:#06063c;fill-opacity:1;stroke-width:0.26458332"
       d="M 450.84973,526.4775 A 113.74991,113.74991 0 0 1 564.59989,640.2271 113.74991,113.74991 0 0 1 450.84973,753.9773 113.74991,113.74991 0 0 1 337.10009,640.2271 113.74991,113.74991 0 0 1 450.84973,526.4775 Z m -5.3e-4,49.9995 a 63.749999,63.749999 0 0 0 -63.74958,63.7501 63.749999,63.749999 0 0 0 63.74958,63.7501 63.749999,63.749999 0 0 0 63.75011,-63.7501 63.749999,63.749999 0 0 0 -63.75011,-63.7501 z"
       id="path1654-3-2" />
    <rect
       style="fill:#06063c;fill-opacity:1;stroke-width:0.07676534"
       id="rect1584-2-3"
       width="244.57449"
       height="50"
       x="-2570.4595"
       y="1732.7167"
       ry="0.1628415"
       transform="scale(-1,1)" />
    <path
       inkscape:connector-curvature="0"
       style="fill:#06063c;fill-opacity:1;stroke-width:0.1862691"
       d="m 1767.8977,1477.1197 578.3357,259.9246 c 0.082,0.037 0.1186,0.1327 0.082,0.215 l -20.3631,45.3089 c -0.037,0.082 -0.1332,0.1186 -0.2155,0.082 L 1645.9287,1477.12 Z"
       id="rect1584-8-3-5" />
    <rect
       style="fill:#06063c;fill-opacity:1;stroke-width:0.08820387"
       id="rect1584-7-7-6"
       width="322.89117"
       height="50"
       x="-1767.9297"
       y="1477.1205"
       ry="0.1628415"
       transform="scale(-1,1)" />
    <rect
       style="fill:#06063c;fill-opacity:1;stroke-width:0.08820387"
       id="rect1584-7-7-9-91"
       width="322.89117"
       height="50"
       x="-1767.9292"
       y="1193.9484"
       ry="0.1628415"
       transform="scale(-1,1)" />
    <path
       inkscape:connector-curvature="0"
       style="fill:#06063c;fill-opacity:1;stroke-width:0.1862691"
       d="M 2325.5749,938.46055 1747.239,1198.3852 c -0.082,0.037 -0.1186,0.1327 -0.082,0.215 l 20.3631,45.3088 c 0.037,0.082 0.1332,0.1187 0.2155,0.082 l 679.8086,-305.53015 z"
       id="rect1584-8-3-2-2" />
    <path
       inkscape:connector-curvature="0"
       style="fill:#06063c;fill-opacity:1;stroke-width:0.07676534"
       d="m 2569.9867,888.46045 c 0.09,0 0.1628,0.073 0.1628,0.1628 v 49.6745 c 0,0.09 -0.072,0.1627 -0.1628,0.1627 H 2325.813 l 111.2511,-50 z"
       id="rect1584-2-2-7" />
    <rect
       style="fill:#06063c;fill-opacity:1;stroke-width:0.12983043"
       id="rect1584-2-7-9"
       width="699.57416"
       height="50"
       x="2206.1494"
       y="1333.0952"
       ry="0.1628415" />
    <path
       inkscape:connector-curvature="0"
       style="fill:#06063c;fill-opacity:1;stroke-width:0.26458332"
       d="m 2105.8008,1242.8958 a 113.74991,113.74991 0 0 0 -113.7502,113.7496 113.74991,113.74991 0 0 0 113.7502,113.7502 113.74991,113.74991 0 0 0 113.7496,-113.7502 113.74991,113.74991 0 0 0 -113.7496,-113.7496 z m 0,49.9995 a 63.749999,63.749999 0 0 1 63.7495,63.7501 63.749999,63.749999 0 0 1 -63.7495,63.7501 63.749999,63.749999 0 0 1 -63.7501,-63.7501 63.749999,63.749999 0 0 1 63.7501,-63.7501 z"
       id="path1654-3-3" />
    <rect
       style="fill:#06063c;fill-opacity:1;stroke-width:0.08820387"
       id="rect1584-7-7-9-6-6"
       width="322.89117"
       height="50"
       x="-1767.9292"
       y="913.55438"
       ry="0.1628415"
       transform="scale(-1,1)" />
    <path
       style="fill:#06063c;fill-opacity:1;stroke-width:0.1862691"
       d="m 2361.9679,658.06685 v 38.4612 l -594.232,267.069 c -0.082,0.037 -0.1784,-10e-5 -0.2155,-0.082 l -20.3631,-45.3088 c -0.037,-0.082 0,-0.178 0.082,-0.215 l 578.3355,-259.9242 z"
       id="rect1584-8-3-2-1-0"
       inkscape:connector-curvature="0" />
    <path
       inkscape:connector-curvature="0"
       style="fill:#06063c;fill-opacity:1;stroke-width:0.26458332"
       d="m 2439.2265,526.47744 a 113.74991,113.74991 0 0 0 -113.7502,113.74961 113.74991,113.74991 0 0 0 113.7502,113.7502 113.74991,113.74991 0 0 0 113.7496,-113.7502 113.74991,113.74991 0 0 0 -113.7496,-113.74961 z m 0,49.9995 a 63.749999,63.749999 0 0 1 63.7501,63.75011 63.749999,63.749999 0 0 1 -63.7496,63.7501 63.749999,63.749999 0 0 1 -63.7501,-63.7501 63.749999,63.749999 0 0 1 63.7501,-63.75011 z"
       id="path1654-3-2-6" />
    <rect
       transform="translate(-3.9583331e-6,2263)"
       style="opacity:0.98999999;fill:#06063c;fill-opacity:1;stroke-width:0.07676534"
       id="rect1584-2-4"
       width="244.57449"
       height="50"
       x="3215.2961"
       y="-530.28326"
       ry="0.1628415" />
    <path
       transform="translate(-3.9583331e-6,2263)"
       inkscape:connector-curvature="0"
       style="opacity:0.98999999;fill:#06063c;fill-opacity:1;stroke-width:0.1862691"
       d="m 4017.8581,-785.88031 -578.3357,259.9246 c -0.082,0.037 -0.1187,0.1327 -0.082,0.215 l 20.363,45.3089 c 0.037,0.082 0.1333,0.1186 0.2155,0.082 l 679.8085,-305.5302 z"
       id="rect1584-8-3-7" />
    <path
       transform="translate(-3.9583331e-6,2263)"
       inkscape:connector-curvature="0"
       style="opacity:0.98999999;fill:#06063c;fill-opacity:1;stroke-width:0.26458332"
       d="m 3111.9542,-620.48271 a 113.74991,113.74991 0 0 0 -113.7502,113.7497 113.74991,113.74991 0 0 0 113.7502,113.75011 113.74991,113.74991 0 0 0 113.7496,-113.75011 113.74991,113.74991 0 0 0 -113.7496,-113.7497 z m 5e-4,49.9996 a 63.749999,63.749999 0 0 1 63.7496,63.7501 63.749999,63.749999 0 0 1 -63.7496,63.75008 63.749999,63.749999 0 0 1 -63.7501,-63.75008 63.749999,63.749999 0 0 1 63.7501,-63.7501 z"
       id="path1654-4" />
    <path
       transform="translate(-3.9583331e-6,2263)"
       inkscape:connector-curvature="0"
       style="opacity:0.98999999;fill:#06063c;fill-opacity:1;stroke-width:0.1862691"
       d="m 3460.1809,-1324.5394 578.3359,259.9246 c 0.082,0.037 0.1186,0.1327 0.082,0.215 l -20.3631,45.3088 c -0.037,0.082 -0.1332,0.1187 -0.2155,0.082 l -679.8086,-305.5301 z"
       id="rect1584-8-3-2-0" />
    <path
       transform="translate(-3.9583331e-6,2263)"
       inkscape:connector-curvature="0"
       style="opacity:0.98999999;fill:#06063c;fill-opacity:1;stroke-width:0.07676534"
       d="m 3215.7691,-1374.5395 c -0.09,0 -0.1628,0.073 -0.1628,0.1628 v 49.6745 c 0,0.09 0.072,0.1628 0.1628,0.1628 h 244.1737 l -111.2511,-50.0001 z"
       id="rect1584-2-2-3" />
    <rect
       transform="translate(-3.9583331e-6,2263)"
       style="opacity:0.98999999;fill:#06063c;fill-opacity:1;stroke-width:0.08820387"
       id="rect1584-7-7-9-9-6"
       width="322.89117"
       height="50"
       x="2892.8779"
       y="-1374.5396"
       ry="0.1628415" />
    <rect
       style="opacity:0.98999999;fill:#06063c;fill-opacity:1;stroke-width:0.12983043"
       id="rect1584-2-7-1"
       width="699.57416"
       height="50"
       x="-3579.6064"
       y="-929.90472"
       ry="0.1628415"
       transform="matrix(-1,0,0,1,-3.9583331e-6,2263)" />
    <path
       transform="translate(-3.9583331e-6,2263)"
       inkscape:connector-curvature="0"
       style="opacity:0.98999999;fill:#06063c;fill-opacity:1;stroke-width:0.26458332"
       d="m 3679.955,-1020.1042 a 113.74991,113.74991 0 0 1 113.7501,113.74959 113.74991,113.74991 0 0 1 -113.7501,113.7502 113.74991,113.74991 0 0 1 -113.7497,-113.7502 113.74991,113.74991 0 0 1 113.7497,-113.74959 z m 0,49.99949 a 63.749999,63.749999 0 0 0 -63.7496,63.7501 63.749999,63.749999 0 0 0 63.7496,63.7501 63.749999,63.749999 0 0 0 63.7501,-63.7501 63.749999,63.749999 0 0 0 -63.7501,-63.7501 z"
       id="path1654-3-0" />
    <path
       transform="translate(-3.9583331e-6,2263)"
       style="opacity:0.98999999;fill:#06063c;fill-opacity:1;stroke-width:0.1862691"
       d="m 3423.7879,-1604.9331 v 38.4613 l 594.232,267.0689 c 0.082,0.037 0.1784,-10e-5 0.2155,-0.082 l 20.3631,-45.3088 c 0.037,-0.082 0,-0.178 -0.082,-0.215 l -578.3355,-259.9242 z"
       id="rect1584-8-3-2-1-2"
       inkscape:connector-curvature="0" />
    <path
       transform="translate(-3.9583331e-6,2263)"
       inkscape:connector-curvature="0"
       style="opacity:0.98999999;fill:#06063c;fill-opacity:1;stroke-width:0.26458332"
       d="m 3346.5293,-1736.5225 a 113.74991,113.74991 0 0 1 113.7502,113.7496 113.74991,113.74991 0 0 1 -113.7502,113.7502 113.74991,113.74991 0 0 1 -113.7497,-113.7502 113.74991,113.74991 0 0 1 113.7497,-113.7496 z m 0,49.9995 a 63.749999,63.749999 0 0 0 -63.7501,63.7501 63.749999,63.749999 0 0 0 63.7496,63.7501 63.749999,63.749999 0 0 0 63.7501,-63.7501 63.749999,63.749999 0 0 0 -63.7501,-63.7501 z"
       id="path1654-3-2-0" />
    <path
       transform="translate(-3.9583331e-6)"
       inkscape:connector-curvature="0"
       style="fill:#06063c;fill-opacity:1;stroke-width:0.26458332"
       d="m 2673.8016,1642.5173 a 113.74991,113.74991 0 0 1 113.7501,113.7497 113.74991,113.74991 0 0 1 -113.7501,113.7501 113.74991,113.74991 0 0 1 -113.7497,-113.7501 113.74991,113.74991 0 0 1 113.7497,-113.7497 z m -6e-4,49.9996 a 63.749999,63.749999 0 0 0 -63.7496,63.7501 63.749999,63.749999 0 0 0 63.7496,63.7501 63.749999,63.749999 0 0 0 63.7501,-63.7501 63.749999,63.749999 0 0 0 -63.7501,-63.7501 z"
       id="path1654-2" />
    <rect
       style="fill:#06063c;fill-opacity:1;stroke-width:0.08820387"
       id="rect1584-7-7-9-9-0"
       width="322.89117"
       height="50"
       x="-2892.8779"
       y="888.46039"
       ry="0.1628415"
       transform="matrix(-1,0,0,1,-3.9583331e-6,0)" />
    <rect
       style="opacity:0.98999999;fill:#06063c;fill-opacity:1;stroke-width:0.07676534"
       id="rect1584-2-3-5"
       width="244.57449"
       height="50"
       x="-5466.1392"
       y="-530.2832"
       ry="0.1628415"
       transform="matrix(-1,0,0,1,-3.9583331e-6,2263)" />
    <path
       transform="translate(-3.9583331e-6,2263)"
       inkscape:connector-curvature="0"
       style="opacity:0.98999999;fill:#06063c;fill-opacity:1;stroke-width:0.1862691"
       d="m 4663.5774,-785.88013 578.3357,259.92457 c 0.082,0.037 0.1186,0.1327 0.082,0.215 l -20.3631,45.3089 c -0.037,0.082 -0.1332,0.1186 -0.2155,0.082 l -679.8081,-305.53017 z"
       id="rect1584-8-3-5-9" />
    <rect
       style="opacity:0.98999999;fill:#06063c;fill-opacity:1;stroke-width:0.08820387"
       id="rect1584-7-7-6-4"
       width="322.89117"
       height="50"
       x="-4663.6094"
       y="-785.87939"
       ry="0.1628415"
       transform="matrix(-1,0,0,1,-3.9583331e-6,2263)" />
    <path
       transform="translate(-3.9583331e-6,2263)"
       inkscape:connector-curvature="0"
       style="opacity:0.98999999;fill:#06063c;fill-opacity:1;stroke-width:0.26458332"
       d="m 5569.4813,-620.48256 a 113.74991,113.74991 0 0 1 113.7501,113.7497 113.74991,113.74991 0 0 1 -113.7501,113.75007 113.74991,113.74991 0 0 1 -113.7497,-113.75007 113.74991,113.74991 0 0 1 113.7497,-113.7497 z m 0,49.9996 a 63.749999,63.749999 0 0 0 -63.7496,63.7501 63.749999,63.749999 0 0 0 63.7496,63.75006 63.749999,63.749999 0 0 0 63.7501,-63.75006 63.749999,63.749999 0 0 0 -63.7501,-63.7501 z"
       id="path1654-2-9" />
    <rect
       style="opacity:0.98999999;fill:#06063c;fill-opacity:1;stroke-width:0.08820387"
       id="rect1584-7-7-9-91-0"
       width="322.89117"
       height="50"
       x="-4663.6089"
       y="-1069.0515"
       ry="0.1628415"
       transform="matrix(-1,0,0,1,-3.9583331e-6,2263)" />
    <path
       transform="translate(-3.9583331e-6,2263)"
       inkscape:connector-curvature="0"
       style="opacity:0.98999999;fill:#06063c;fill-opacity:1;stroke-width:0.1862691"
       d="m 5221.2546,-1324.5393 -578.3359,259.9247 c -0.082,0.037 -0.1186,0.1327 -0.082,0.215 l 20.3631,45.3088 c 0.037,0.082 0.1332,0.1187 0.2155,0.082 l 679.8086,-305.5302 z"
       id="rect1584-8-3-2-2-9" />
    <path
       transform="translate(-3.9583331e-6,2263)"
       inkscape:connector-curvature="0"
       style="opacity:0.98999999;fill:#06063c;fill-opacity:1;stroke-width:0.07676534"
       d="m 5465.6664,-1374.5394 c 0.09,0 0.1628,0.073 0.1628,0.1628 v 49.6745 c 0,0.09 -0.072,0.1627 -0.1628,0.1627 h -244.1737 l 111.2511,-50 z"
       id="rect1584-2-2-7-1" />
    <rect
       style="opacity:0.98999999;fill:#06063c;fill-opacity:1;stroke-width:0.08820387"
       id="rect1584-7-7-9-9-0-7"
       width="322.89117"
       height="50"
       x="-5788.5576"
       y="-1374.5396"
       ry="0.1628415"
       transform="matrix(-1,0,0,1,-3.9583331e-6,2263)" />
    <rect
       transform="translate(-3.9583331e-6,2263)"
       style="opacity:0.98999999;fill:#06063c;fill-opacity:1;stroke-width:0.12983043"
       id="rect1584-2-7-9-7"
       width="699.57416"
       height="50"
       x="5101.8291"
       y="-929.90466"
       ry="0.1628415" />
    <path
       transform="translate(-3.9583331e-6,2263)"
       inkscape:connector-curvature="0"
       style="opacity:0.98999999;fill:#06063c;fill-opacity:1;stroke-width:0.26458332"
       d="m 5001.4805,-1020.104 a 113.74991,113.74991 0 0 0 -113.7502,113.74957 113.74991,113.74991 0 0 0 113.7502,113.7502 113.74991,113.74991 0 0 0 113.7496,-113.7502 113.74991,113.74991 0 0 0 -113.7496,-113.74957 z m 0,49.99947 a 63.749999,63.749999 0 0 1 63.7495,63.7501 63.749999,63.749999 0 0 1 -63.7495,63.7501 63.749999,63.749999 0 0 1 -63.7501,-63.7501 63.749999,63.749999 0 0 1 63.7501,-63.7501 z"
       id="path1654-3-3-1" />
    <rect
       style="opacity:0.98999999;fill:#06063c;fill-opacity:1;stroke-width:0.08820387"
       id="rect1584-7-7-9-6-6-1"
       width="322.89117"
       height="50"
       x="-4663.6089"
       y="-1349.4456"
       ry="0.1628415"
       transform="matrix(-1,0,0,1,-3.9583331e-6,2263)" />
    <path
       transform="translate(-3.9583331e-6,2263)"
       style="opacity:0.98999999;fill:#06063c;fill-opacity:1;stroke-width:0.1862691"
       d="m 5257.6476,-1604.933 v 38.4612 l -594.232,267.069 c -0.082,0.037 -0.1784,-10e-5 -0.2155,-0.082 l -20.3631,-45.3088 c -0.037,-0.082 0,-0.178 0.082,-0.215 l 578.3355,-259.9242 z"
       id="rect1584-8-3-2-1-0-5"
       inkscape:connector-curvature="0" />
    <path
       transform="translate(-3.9583331e-6,2263)"
       inkscape:connector-curvature="0"
       style="opacity:0.98999999;fill:#06063c;fill-opacity:1;stroke-width:0.26458332"
       d="m 5334.9062,-1736.5224 a 113.74991,113.74991 0 0 0 -113.7502,113.7496 113.74991,113.74991 0 0 0 113.7502,113.7502 113.74991,113.74991 0 0 0 113.7496,-113.7502 113.74991,113.74991 0 0 0 -113.7496,-113.7496 z m 0,49.9995 a 63.749999,63.749999 0 0 1 63.7501,63.7501 63.749999,63.749999 0 0 1 -63.7496,63.7501 63.749999,63.749999 0 0 1 -63.7501,-63.7501 63.749999,63.749999 0 0 1 63.7501,-63.7501 z"
       id="path1654-3-2-6-9" />
    <rect
       transform="translate(-3.9583331e-6,2263)"
       style="opacity:0.98999999;fill:#06063c;fill-opacity:1;stroke-width:0.08820387"
       id="rect1584-7-7-8"
       width="322.89117"
       height="50"
       x="4017.8262"
       y="-785.87946"
       ry="0.1628415" />
    <rect
       transform="translate(-3.9583331e-6,2263)"
       style="opacity:0.98999999;fill:#06063c;fill-opacity:1;stroke-width:0.08820387"
       id="rect1584-7-7-9-5"
       width="322.89117"
       height="50"
       x="4017.8264"
       y="-1069.0515"
       ry="0.1628415" />
    <rect
       transform="translate(-3.9583331e-6,2263)"
       style="opacity:0.98999999;fill:#06063c;fill-opacity:1;stroke-width:0.08820387"
       id="rect1584-7-7-9-6-63"
       width="322.89117"
       height="50"
       x="4017.8264"
       y="-1349.4456"
       ry="0.1628415" />
  </g>
</svg>
