<?xml version="1.0" encoding="UTF-8" standalone="no"?>
<!-- Created with Inkscape (http://www.inkscape.org/) -->

<svg
   xmlns:dc="http://purl.org/dc/elements/1.1/"
   xmlns:cc="http://creativecommons.org/ns#"
   xmlns:rdf="http://www.w3.org/1999/02/22-rdf-syntax-ns#"
   xmlns:svg="http://www.w3.org/2000/svg"
   xmlns="http://www.w3.org/2000/svg"
   xmlns:sodipodi="http://sodipodi.sourceforge.net/DTD/sodipodi-0.dtd"
   xmlns:inkscape="http://www.inkscape.org/namespaces/inkscape"
   width="258.36508mm"
   height="445.00076mm"
   viewBox="0 0 258.36508 445.00076"
   version="1.1"
   id="svg8"
   sodipodi:docname="blankApp.svg"
   inkscape:version="0.92.4 5da689c313, 2019-01-14">
  <defs
     id="defs2">
    <path
       inkscape:connector-curvature="0"
       id="SVGID_1_"
       d="M 101.17,41.45 C 101.14,20.18 83.88,2.97 62.61,3 41.35,3.03 24.13,20.29 24.16,41.55 c 0.01,9.27 4.57,17.43 9.54,25.06 5.22,8.01 8.77,15.72 12.71,24.31 2.31,5.05 8.61,7.02 14.11,7.4 5.38,0.36 12.21,-0.25 16.71,-3.93 7.05,-5.76 7.21,-16.78 11.84,-24.13 5.67,-8.98 12.11,-17.68 12.1,-28.81 z" />
    <path
       inkscape:connector-curvature="0"
       id="path960"
       d="M 101.17,41.45 C 101.14,20.18 83.88,2.97 62.61,3 41.35,3.03 24.13,20.29 24.16,41.55 c 0.01,9.27 4.57,17.43 9.54,25.06 5.22,8.01 8.77,15.72 12.71,24.31 2.31,5.05 8.61,7.02 14.11,7.4 5.38,0.36 12.21,-0.25 16.71,-3.93 7.05,-5.76 7.21,-16.78 11.84,-24.13 5.67,-8.98 12.11,-17.68 12.1,-28.81 z" />
    <path
       inkscape:connector-curvature="0"
       id="SVGID_1_-2"
       d="M 101.17,41.45 C 101.14,20.18 83.88,2.97 62.61,3 41.35,3.03 24.13,20.29 24.16,41.55 c 0.01,9.27 4.57,17.43 9.54,25.06 5.22,8.01 8.77,15.72 12.71,24.31 2.31,5.05 8.61,7.02 14.11,7.4 5.38,0.36 12.21,-0.25 16.71,-3.93 7.05,-5.76 7.21,-16.78 11.84,-24.13 5.67,-8.98 12.11,-17.68 12.1,-28.81 z" />
    <path
       inkscape:connector-curvature="0"
       id="path960-2"
       d="M 101.17,41.45 C 101.14,20.18 83.88,2.97 62.61,3 41.35,3.03 24.13,20.29 24.16,41.55 c 0.01,9.27 4.57,17.43 9.54,25.06 5.22,8.01 8.77,15.72 12.71,24.31 2.31,5.05 8.61,7.02 14.11,7.4 5.38,0.36 12.21,-0.25 16.71,-3.93 7.05,-5.76 7.21,-16.78 11.84,-24.13 5.67,-8.98 12.11,-17.68 12.1,-28.81 z" />
  </defs>
  <sodipodi:namedview
     id="base"
     pagecolor="#ffffff"
     bordercolor="#666666"
     borderopacity="1.0"
     inkscape:pageopacity="0.0"
     inkscape:pageshadow="2"
     inkscape:zoom="0.32"
     inkscape:cx="918.15696"
     inkscape:cy="-76.97142"
     inkscape:document-units="mm"
     inkscape:current-layer="layer5-9"
     showgrid="false"
     inkscape:window-width="2560"
     inkscape:window-height="1384"
     inkscape:window-x="0"
     inkscape:window-y="28"
     inkscape:window-maximized="1" />
  <metadata
     id="metadata5">
    <rdf:RDF>
      <cc:Work
         rdf:about="">
        <dc:format>image/svg+xml</dc:format>
        <dc:type
           rdf:resource="http://purl.org/dc/dcmitype/StillImage" />
        <dc:title></dc:title>
      </cc:Work>
    </rdf:RDF>
  </metadata>
  <g
     inkscape:label="Layer 1"
     inkscape:groupmode="layer"
     id="layer1"
     transform="translate(-1804.4244,-1684.0471)">
    <g
       id="g965"
       transform="translate(1549.0526,497.35741)">
      <g
         style="display:inline"
         transform="translate(-259.87582,-18.207981)"
         inkscape:label="Layer 3"
         id="layer3">
        <g
           id="g1117"
           transform="translate(93.932156,14.462221)">
          <g
             style="display:inline"
             transform="translate(-417.09946,-42.538708)"
             inkscape:label="Layer 3"
             id="layer3-2">
            <g
               style="fill:#1a0847;fill-opacity:1"
               transform="matrix(3.4765625,0,0,3.4765625,-406.90233,-322.02532)"
               id="g1046">
              <g
                 style="fill:#1a0847;fill-opacity:1"
                 class="iconic-metadata"
                 id="g998">
                <title
                   id="title996">Bell</title>
              </g>
              <g
                 style="display:inline;fill:#1a0847;fill-opacity:1"
                 class="iconic-bell-lg iconic-container iconic-lg"
                 data-width="112"
                 data-height="128"
                 display="inline"
                 transform="translate(8)"
                 id="g1006" />
              <g
                 style="display:none;fill:#1a0847;fill-opacity:1"
                 class="iconic-bell-md iconic-container iconic-md"
                 data-width="28"
                 data-height="32"
                 display="none"
                 transform="matrix(4,0,0,4,8,0)"
                 id="g1014">
                <path
                   style="fill:#1a0847;fill-opacity:1"
                   inkscape:connector-curvature="0"
                   d="m 10,28 c 0,2.209 1.791,4 4,4 2.209,0 4,-1.791 4,-4 z"
                   class="iconic-bell-clapper iconic-property-force-fill iconic-property-accent iconic-property-fill"
                   id="path1008" />
                <circle
                   style="fill:#1a0847;fill-opacity:1"
                   cx="14"
                   cy="2"
                   r="2"
                   class="iconic-bell-crown iconic-property-force-fill iconic-property-fill"
                   id="circle1010" />
                <path
                   style="fill:#1a0847;fill-opacity:1"
                   inkscape:connector-curvature="0"
                   d="M 27.972,25.622 C 27.833,23.824 26.732,22.202 25,21.008 21.293,18.453 21,14.923 21,11.024 V 9.999 c 0,-3.866 -3.134,-7 -7,-7 -3.866,0 -7,3.134 -7,7 v 1.025 c 0,3.899 -0.293,7.429 -4,9.984 -1.732,1.194 -2.834,2.816 -2.972,4.614 H 0.021 v 0.094 C 0.016,25.811 0,25.904 0,26 h 0.021 v 1 H 28 v -1.378 z"
                   class="iconic-bell-body iconic-property-fill"
                   id="path1012" />
              </g>
              <g
                 style="display:none;fill:#1a0847;fill-opacity:1"
                 class="iconic-bell-sm iconic-container iconic-sm"
                 data-width="14"
                 data-height="16"
                 display="none"
                 transform="matrix(8,0,0,8,8,0)"
                 id="g1022">
                <path
                   style="fill:#1a0847;fill-opacity:1"
                   inkscape:connector-curvature="0"
                   d="m 5,14 c 0,1.105 0.895,2 2,2 1.105,0 2,-0.895 2,-2 z"
                   class="iconic-bell-clapper iconic-property-force-fill iconic-property-accent iconic-property-fill"
                   id="path1016" />
                <circle
                   style="fill:#1a0847;fill-opacity:1"
                   cx="7"
                   cy="1"
                   r="1"
                   class="iconic-bell-crown iconic-property-force-fill iconic-property-fill"
                   id="circle1018" />
                <path
                   style="fill:#1a0847;fill-opacity:1"
                   inkscape:connector-curvature="0"
                   d="M 0,13 C 0,11.96 0.509,11.019 1.333,10.338 2.981,8.975 3,7.093 3,5.013 V 5 C 3,2.791 4.791,1 7,1 c 2.209,0 4,1.791 4,4 v 0.013 c 0,2.079 0.019,3.962 1.667,5.325 C 13.491,11.019 14,11.961 14,13 Z"
                   class="iconic-bell-body iconic-property-fill"
                   id="path1020" />
              </g>
            </g>
            <g
               id="g1171"
               transform="matrix(1.3160346,0,0,1.3160346,838.41517,1232.9741)">
              <g
                 transform="translate(29.104164,88.280403)"
                 style="display:inline"
                 inkscape:label="Sub"
                 id="layer5-9">
                <path
                   style="display:inline;opacity:1;fill:#1a1a1a;stroke-width:0.92375493"
                   d="m 6818.1836,6179.5254 c -27.5559,0 -49.7402,22.1843 -49.7402,49.7402 v 1582.4121 c 0,27.5559 22.1843,49.7403 49.7402,49.7403 h 877.0176 c 27.5559,0 49.7402,-22.1844 49.7402,-49.7403 V 6229.2656 c 0,-27.5559 -22.1843,-49.7402 -49.7402,-49.7402 z m 63.1699,71.0664 h 750.6797 c 27.5559,0 49.7383,22.1843 49.7383,49.7402 v 1334.9981 c 0,27.5559 -22.1824,49.7383 -49.7383,49.7383 h -750.6797 c -27.5559,0 -49.7402,-22.1824 -49.7402,-49.7383 V 6300.332 c 0,-27.5559 22.1843,-49.7402 49.7402,-49.7402 z"
                   transform="matrix(0.20104588,0,0,0.20104588,-1389.872,-1330.6485)"
                   id="rect845"
                   inkscape:connector-curvature="0" />
                <circle
                   r="12.964583"
                   cy="232.65918"
                   cx="69.585411"
                   id="path851"
                   style="opacity:1;fill:#4d4d4d;stroke-width:0.26458332" />
              </g>
              <g
                 transform="translate(29.104164,88.280403)"
                 inkscape:label="Sub 1"
                 id="layer7" />
              <g
                 transform="translate(29.104164,88.280403)"
                 style="display:inline"
                 inkscape:label="Layer 4"
                 id="layer4-4" />
            </g>
          </g>
          <g
             transform="translate(-416.61528,-42.538707)"
             style="display:inline"
             inkscape:label="Layer 4"
             id="layer4-5" />
        </g>
      </g>
      <g
         transform="translate(-259.39164,-18.20798)"
         style="display:inline"
         inkscape:label="Layer 4"
         id="layer4" />
    </g>
  </g>
</svg>
