<?xml version="1.0" encoding="UTF-8" standalone="no"?>
<!-- Created with Inkscape (http://www.inkscape.org/) -->

<svg
   xmlns:dc="http://purl.org/dc/elements/1.1/"
   xmlns:cc="http://creativecommons.org/ns#"
   xmlns:rdf="http://www.w3.org/1999/02/22-rdf-syntax-ns#"
   xmlns:svg="http://www.w3.org/2000/svg"
   xmlns="http://www.w3.org/2000/svg"
   xmlns:sodipodi="http://sodipodi.sourceforge.net/DTD/sodipodi-0.dtd"
   xmlns:inkscape="http://www.inkscape.org/namespaces/inkscape"
   width="3840mm"
   height="2160mm"
   viewBox="0 0 3840 2160"
   version="1.1"
   id="svg8"
   sodipodi:docname="brainDemoTVSelected.svg"
   inkscape:version="0.92.4 5da689c313, 2019-01-14">
  <defs
     id="defs2">
    <path
       inkscape:connector-curvature="0"
       id="SVGID_1_"
       d="M 101.17,41.45 C 101.14,20.18 83.88,2.97 62.61,3 41.35,3.03 24.13,20.29 24.16,41.55 c 0.01,9.27 4.57,17.43 9.54,25.06 5.22,8.01 8.77,15.72 12.71,24.31 2.31,5.05 8.61,7.02 14.11,7.4 5.38,0.36 12.21,-0.25 16.71,-3.93 7.05,-5.76 7.21,-16.78 11.84,-24.13 5.67,-8.98 12.11,-17.68 12.1,-28.81 z" />
    <path
       inkscape:connector-curvature="0"
       id="path960"
       d="M 101.17,41.45 C 101.14,20.18 83.88,2.97 62.61,3 41.35,3.03 24.13,20.29 24.16,41.55 c 0.01,9.27 4.57,17.43 9.54,25.06 5.22,8.01 8.77,15.72 12.71,24.31 2.31,5.05 8.61,7.02 14.11,7.4 5.38,0.36 12.21,-0.25 16.71,-3.93 7.05,-5.76 7.21,-16.78 11.84,-24.13 5.67,-8.98 12.11,-17.68 12.1,-28.81 z" />
    <path
       inkscape:connector-curvature="0"
       id="SVGID_1_-2"
       d="M 101.17,41.45 C 101.14,20.18 83.88,2.97 62.61,3 41.35,3.03 24.13,20.29 24.16,41.55 c 0.01,9.27 4.57,17.43 9.54,25.06 5.22,8.01 8.77,15.72 12.71,24.31 2.31,5.05 8.61,7.02 14.11,7.4 5.38,0.36 12.21,-0.25 16.71,-3.93 7.05,-5.76 7.21,-16.78 11.84,-24.13 5.67,-8.98 12.11,-17.68 12.1,-28.81 z" />
    <path
       inkscape:connector-curvature="0"
       id="path960-2"
       d="M 101.17,41.45 C 101.14,20.18 83.88,2.97 62.61,3 41.35,3.03 24.13,20.29 24.16,41.55 c 0.01,9.27 4.57,17.43 9.54,25.06 5.22,8.01 8.77,15.72 12.71,24.31 2.31,5.05 8.61,7.02 14.11,7.4 5.38,0.36 12.21,-0.25 16.71,-3.93 7.05,-5.76 7.21,-16.78 11.84,-24.13 5.67,-8.98 12.11,-17.68 12.1,-28.81 z" />
  </defs>
  <sodipodi:namedview
     id="base"
     pagecolor="#ffffff"
     bordercolor="#666666"
     borderopacity="1.0"
     inkscape:pageopacity="0.0"
     inkscape:pageshadow="2"
     inkscape:zoom="0.08"
     inkscape:cx="4649.3182"
     inkscape:cy="6015.2604"
     inkscape:document-units="mm"
     inkscape:current-layer="layer2-2"
     showgrid="false"
     inkscape:window-width="2560"
     inkscape:window-height="1384"
     inkscape:window-x="0"
     inkscape:window-y="28"
     inkscape:window-maximized="1" />
  <metadata
     id="metadata5">
    <rdf:RDF>
      <cc:Work
         rdf:about="">
        <dc:format>image/svg+xml</dc:format>
        <dc:type
           rdf:resource="http://purl.org/dc/dcmitype/StillImage" />
        <dc:title></dc:title>
      </cc:Work>
    </rdf:RDF>
  </metadata>
  <g
     inkscape:label="Layer 1"
     inkscape:groupmode="layer"
     id="layer1"
     transform="translate(-13.607142,-49.047619)">
    <g
       id="g965"
       transform="translate(1549.0526,497.35741)">
      <g
         style="display:inline"
         transform="translate(-259.87582,-18.207981)"
         inkscape:label="Layer 3"
         id="layer3">
        <g
           id="g1117"
           transform="translate(93.932156,14.462221)">
          <g
             transform="translate(-416.61528,-41.109263)"
             style="display:inline"
             inkscape:label="Sub"
             id="layer5">
            <g
               style="display:inline;fill:#1a0847;stroke:none;fill-opacity:1"
               transform="matrix(0.00877303,0,0,-0.00877303,170.65782,128.43585)"
               id="g918">
              <path
                 style="fill:#1a0847;stroke-width:4.21744823;fill-opacity:1"
                 inkscape:connector-curvature="0"
                 d="m 46401.068,50880.669 c -1088.102,-1113.406 -3116.695,-3373.958 -4727.761,-5263.375 -8063.762,-9451.3 -12901.176,-17523.496 -13782.623,-22993.526 -236.177,-1471.89 -164.481,-3652.311 185.568,-5558.597 885.664,-4828.979 3433.003,-9122.341 7190.75,-12129.3816 2952.215,-2365.9886 6499.089,-3774.6164 10269.489,-4086.70759 704.313,-59.04428 2247.901,-59.04428 2952.214,0 2947.997,244.61199 5777.906,1164.01589 8278.852,2690.73219 4795.24,2926.9091 8139.678,7852.889 9181.387,13516.922 303.657,1653.24 409.093,3736.659 257.265,5006.111 -662.14,5499.553 -5550.163,13812.143 -13854.32,23554.447 -1611.066,1889.417 -3652.311,4162.621 -4727.76,5263.375 l -611.531,628.4 z"
                 id="path916" />
            </g>
            <ellipse
               cy="15.733525"
               cx="581.93585"
               id="path930"
               style="display:inline;opacity:1;fill:#1a0847;stroke-width:1.02493393;fill-opacity:1"
               rx="105.81173"
               ry="105.81171" />
          </g>
          <g
             style="display:inline"
             transform="translate(-417.09946,-42.538708)"
             inkscape:label="Layer 3"
             id="layer3-2">
            <path
               inkscape:connector-curvature="0"
               id="rect815"
               d="m 729.747,579.10967 c -5.31842,11.91206 -8.27616,25.12732 -8.27616,39.05966 v 190.97763 c 0,52.90076 42.58805,95.48885 95.48881,95.48885 H 1120.545 c 52.9007,0 95.4888,-42.58809 95.4888,-95.48885 V 618.16933 c 0,-13.93299 -2.9565,-27.14786 -8.2762,-39.05966 z"
               style="display:inline;fill:#b3b3b3;fill-opacity:1;stroke-width:1.14995158" />
            <circle
               r="38.195496"
               cy="692.85034"
               cx="891.64001"
               id="path817-7"
               style="display:inline;fill:#ffffff;fill-opacity:1;stroke-width:1.21976888" />
            <circle
               r="38.195496"
               cy="692.85034"
               cx="1044.422"
               id="path817-3-0"
               style="display:inline;fill:#ffffff;fill-opacity:1;stroke-width:1.21976888" />
            <circle
               r="9.5488739"
               cy="692.85034"
               cx="891.64001"
               id="path840"
               style="display:inline;fill:#1a1a1a;fill-opacity:1;stroke-width:1.98050678" />
            <circle
               r="9.5488739"
               cy="692.85034"
               cx="1044.422"
               id="path840-6"
               style="display:inline;fill:#1a1a1a;fill-opacity:1;stroke-width:1.98050678" />
            <path
               inkscape:connector-curvature="0"
               id="path2812-0"
               d="m 968.031,838.19608 c -9.9694,8.818 -16.6624,18.58604 -61.2589,17.515 -37.69909,-0.90531 -52.02141,-24.26957 -53.15215,-39.92514 -1.16336,-16.10734 3.54447,-24.34321 11.56132,-29.64581 7.96383,-5.26758 19.22893,-5.54568 24.22783,-2.12279 3.72,2.54718 9.5611,7.84127 5.4976,10.33242 -4.4988,2.75798 -10.9789,-4.27305 -16.5803,1.29895 -11.07081,11.01271 0.6208,22.97424 11.0959,22.65902 13.2552,-0.39888 17.5652,-14.60035 40.7453,-28.53616 21.2754,-12.79068 37.9261,7.9201 37.8634,7.71365 -0.063,0.20664 16.588,-20.50433 37.8633,-7.71365 23.1801,13.93581 27.4902,28.13728 40.7453,28.53616 10.4751,0.31511 22.1668,-11.64631 11.0959,-22.65902 -5.6014,-5.572 -12.0815,1.45903 -16.5802,-1.29895 -4.0635,-2.49115 1.7775,-7.78524 5.4975,-10.33242 4.999,-3.42289 16.264,-3.14479 24.2279,2.12279 8.0168,5.3026 12.7246,13.53847 11.5613,29.64581 -1.1307,15.65557 -15.4531,39.01983 -53.1521,39.92514 -44.5965,1.07104 -51.2895,-8.697 -61.2589,-17.515 z"
               style="display:inline;fill:#1a1a1a;stroke:none;stroke-width:0.63659149" />
            <rect
               ry="27.430275"
               y="709.73712"
               x="825.77844"
               height="54.86055"
               width="280.43848"
               id="rect857"
               style="display:inline;fill:#b3b3b3;fill-opacity:1;stroke-width:2.78600168" />
            <ellipse
               cy="-143.3887"
               cx="497.77597"
               id="path817-5-9"
               style="display:inline;fill:#ffffff;fill-opacity:1;stroke-width:1.34683752"
               rx="42.174492"
               ry="42.174484" />
            <ellipse
               cy="-143.3887"
               cx="666.474"
               id="path817-3-3-3"
               style="display:inline;fill:#ffffff;fill-opacity:1;stroke-width:1.34683752"
               rx="42.174492"
               ry="42.174484" />
            <ellipse
               cy="-143.3887"
               cx="497.77597"
               id="path840-5"
               style="display:inline;fill:#1a1a1a;fill-opacity:1;stroke-width:2.1868248"
               rx="10.543623"
               ry="10.543621" />
            <ellipse
               cy="-143.3887"
               cx="666.474"
               id="path840-6-6"
               style="display:inline;fill:#1a1a1a;fill-opacity:1;stroke-width:2.1868248"
               rx="10.543623"
               ry="10.543621" />
            <g
               style="fill:#1a0847;fill-opacity:1"
               transform="matrix(3.4765625,0,0,3.4765625,-406.90233,-322.02532)"
               id="g1046">
              <g
                 style="fill:#1a0847;fill-opacity:1"
                 class="iconic-metadata"
                 id="g998">
                <title
                   id="title996">Bell</title>
              </g>
              <g
                 style="display:inline;fill:#1a0847;fill-opacity:1"
                 class="iconic-bell-lg iconic-container iconic-lg"
                 data-width="112"
                 data-height="128"
                 display="inline"
                 transform="translate(8)"
                 id="g1006">
                <circle
                   style="fill:#1a0847;fill-opacity:1"
                   cx="56"
                   cy="6"
                   r="6"
                   class="iconic-bell-crown iconic-property-fill"
                   id="circle1000" />
                <path
                   style="fill:#1a0847;fill-opacity:1"
                   inkscape:connector-curvature="0"
                   d="M 100,82.033 C 85.172,71.813 84,57.694 84,42.099 v -4.098 c 0,-15.464 -12.536,-28 -28,-28 -15.464,0 -28,12.536 -28,28 v 4.098 C 28,57.694 26.828,71.813 12,82.033 4.586,87.143 0,94.202 0,102 v 2 h 112 v -2 c 0,-7.798 -4.586,-14.857 -12,-19.967 z"
                   class="iconic-bell-body iconic-property-fill"
                   id="path1002" />
                <path
                   style="fill:#1a0847;fill-opacity:1"
                   inkscape:connector-curvature="0"
                   d="m 41.174,106 c -0.751,1.854 -1.174,3.877 -1.174,6 0,8.836 7.163,16 16,16 8.837,0 16,-7.163 16,-16 0,-2.123 -0.423,-4.146 -1.174,-6 z"
                   class="iconic-bell-clapper iconic-property-accent iconic-property-fill"
                   id="path1004" />
              </g>
              <g
                 style="display:none;fill:#1a0847;fill-opacity:1"
                 class="iconic-bell-md iconic-container iconic-md"
                 data-width="28"
                 data-height="32"
                 display="none"
                 transform="matrix(4,0,0,4,8,0)"
                 id="g1014">
                <path
                   style="fill:#1a0847;fill-opacity:1"
                   inkscape:connector-curvature="0"
                   d="m 10,28 c 0,2.209 1.791,4 4,4 2.209,0 4,-1.791 4,-4 z"
                   class="iconic-bell-clapper iconic-property-force-fill iconic-property-accent iconic-property-fill"
                   id="path1008" />
                <circle
                   style="fill:#1a0847;fill-opacity:1"
                   cx="14"
                   cy="2"
                   r="2"
                   class="iconic-bell-crown iconic-property-force-fill iconic-property-fill"
                   id="circle1010" />
                <path
                   style="fill:#1a0847;fill-opacity:1"
                   inkscape:connector-curvature="0"
                   d="M 27.972,25.622 C 27.833,23.824 26.732,22.202 25,21.008 21.293,18.453 21,14.923 21,11.024 V 9.999 c 0,-3.866 -3.134,-7 -7,-7 -3.866,0 -7,3.134 -7,7 v 1.025 c 0,3.899 -0.293,7.429 -4,9.984 -1.732,1.194 -2.834,2.816 -2.972,4.614 H 0.021 v 0.094 C 0.016,25.811 0,25.904 0,26 h 0.021 v 1 H 28 v -1.378 z"
                   class="iconic-bell-body iconic-property-fill"
                   id="path1012" />
              </g>
              <g
                 style="display:none;fill:#1a0847;fill-opacity:1"
                 class="iconic-bell-sm iconic-container iconic-sm"
                 data-width="14"
                 data-height="16"
                 display="none"
                 transform="matrix(8,0,0,8,8,0)"
                 id="g1022">
                <path
                   style="fill:#1a0847;fill-opacity:1"
                   inkscape:connector-curvature="0"
                   d="m 5,14 c 0,1.105 0.895,2 2,2 1.105,0 2,-0.895 2,-2 z"
                   class="iconic-bell-clapper iconic-property-force-fill iconic-property-accent iconic-property-fill"
                   id="path1016" />
                <circle
                   style="fill:#1a0847;fill-opacity:1"
                   cx="7"
                   cy="1"
                   r="1"
                   class="iconic-bell-crown iconic-property-force-fill iconic-property-fill"
                   id="circle1018" />
                <path
                   style="fill:#1a0847;fill-opacity:1"
                   inkscape:connector-curvature="0"
                   d="M 0,13 C 0,11.96 0.509,11.019 1.333,10.338 2.981,8.975 3,7.093 3,5.013 V 5 C 3,2.791 4.791,1 7,1 c 2.209,0 4,1.791 4,4 v 0.013 c 0,2.079 0.019,3.962 1.667,5.325 C 13.491,11.019 14,11.961 14,13 Z"
                   class="iconic-bell-body iconic-property-fill"
                   id="path1020" />
              </g>
            </g>
            <circle
               r="48.250938"
               cy="-11.656269"
               cx="-279.8468"
               id="path817-5-6-6"
               style="display:inline;fill:#ffffff;fill-opacity:1;stroke-width:1.54088831" />
            <circle
               r="48.250938"
               cy="-11.656269"
               cx="-86.843056"
               id="path817-3-3-0-1"
               style="display:inline;fill:#ffffff;fill-opacity:1;stroke-width:1.54088831" />
            <circle
               r="12.062735"
               cy="-11.656269"
               cx="-279.8468"
               id="path840-5-6-8"
               style="display:inline;fill:#1a1a1a;fill-opacity:1;stroke-width:2.5019002" />
            <circle
               r="12.062735"
               cy="-11.656269"
               cx="-86.843056"
               id="path840-6-6-2-7"
               style="display:inline;fill:#1a1a1a;fill-opacity:1;stroke-width:2.5019002" />
            <rect
               rx="12.729945"
               ry="12.729928"
               y="-215.12033"
               x="1940.1816"
               height="238.16251"
               width="358.832"
               id="rect1072"
               style="opacity:1;fill:#808080;stroke-width:1.1227088" />
            <ellipse
               cy="36.940926"
               cx="2016.7908"
               id="path1074"
               style="opacity:1;fill:#808080;stroke-width:1.1227088"
               rx="7.9387617"
               ry="7.9387507" />
            <ellipse
               cy="36.940926"
               cx="2225.5803"
               id="path1074-9"
               style="display:inline;opacity:1;fill:#808080;stroke-width:1.1227088"
               rx="7.9387617"
               ry="7.9387507" />
            <rect
               ry="0.052843437"
               y="29.003891"
               x="2016.7483"
               height="15.86984"
               width="208.79614"
               id="rect1091"
               style="opacity:1;fill:#808080;stroke-width:1.12101471" />
            <rect
               ry="12.729928"
               rx="12.729945"
               y="-208.02151"
               x="1949.3701"
               height="223.1924"
               width="342.49484"
               id="rect1093"
               style="opacity:1;fill:#cccccc;stroke-width:1.1227088" />
            <ellipse
               cy="-96.039558"
               cx="2038.7563"
               id="path817-5-6-6-5"
               style="display:inline;fill:#ffffff;fill-opacity:1;stroke-width:1.3550961"
               rx="42.433147"
               ry="42.43309" />
            <ellipse
               cy="-96.039558"
               cx="2208.4885"
               id="path817-3-3-0-1-9"
               style="display:inline;fill:#ffffff;fill-opacity:1;stroke-width:1.3550961"
               rx="42.433147"
               ry="42.43309" />
            <ellipse
               cy="-96.039558"
               cx="2038.7563"
               id="path840-5-6-8-2"
               style="display:inline;fill:#1a1a1a;fill-opacity:1;stroke-width:2.20023417"
               rx="10.608287"
               ry="10.608273" />
            <ellipse
               cy="-96.039558"
               cx="2208.4885"
               id="path840-6-6-2-7-2"
               style="display:inline;fill:#1a1a1a;fill-opacity:1;stroke-width:2.20023417"
               rx="10.608287"
               ry="10.608273" />
            <g
               id="g1171"
               transform="matrix(1.3160346,0,0,1.3160346,838.41517,1232.9741)">
              <g
                 transform="translate(29.104164,88.280403)"
                 style="display:inline"
                 inkscape:label="Sub"
                 id="layer5-9">
                <rect
                   rx="10"
                   ry="10"
                   y="-88.280403"
                   x="-29.104164"
                   height="338.13748"
                   width="196.32083"
                   id="rect845"
                   style="display:inline;opacity:1;fill:#1a1a1a;stroke-width:0.18571712" />
                <rect
                   rx="10"
                   ry="10"
                   y="-73.992897"
                   x="-16.404167"
                   height="288.39584"
                   width="170.92084"
                   id="rect849"
                   style="opacity:1;fill:#4d4d4d;stroke-width:0.26458332" />
                <circle
                   r="12.964583"
                   cy="232.65918"
                   cx="69.585411"
                   id="path851"
                   style="opacity:1;fill:#4d4d4d;stroke-width:0.26458332" />
              </g>
              <g
                 transform="translate(29.104164,88.280403)"
                 inkscape:label="Sub 1"
                 id="layer7" />
              <g
                 style="display:inline"
                 transform="translate(28.619988,88.280402)"
                 inkscape:label="Layer 3"
                 id="layer3-7">
                <path
                   transform="matrix(0.26458333,0,0,0.26458333,0.4841765,1.1181641e-6)"
                   inkscape:connector-curvature="0"
                   id="rect815-3"
                   d="m 29.800781,169.3418 c -5.262688,11.78727 -8.189453,24.86406 -8.189453,38.65039 v 188.97656 c 0,52.34646 42.141827,94.48829 94.488282,94.48828 h 300.4043 c 52.34645,0 94.48828,-42.14182 94.48828,-94.48828 V 207.99219 c 0,-13.78699 -2.92556,-26.8634 -8.18946,-38.65039 z"
                   style="display:inline;fill:#b3b3b3;fill-opacity:1;stroke-width:1.13790214" />
                <circle
                   transform="translate(6.2022454,-166.96852)"
                   r="10"
                   cy="241.55209"
                   cx="44.552082"
                   id="path817-6"
                   style="display:inline;fill:#ffffff;fill-opacity:1;stroke-width:0.3193489" />
                <circle
                   transform="translate(6.2022454,-166.96852)"
                   r="10"
                   cy="241.55209"
                   cx="84.552086"
                   id="path817-3-1"
                   style="display:inline;fill:#ffffff;fill-opacity:1;stroke-width:0.3193489" />
                <circle
                   transform="translate(6.2022454,-166.96852)"
                   r="2.5"
                   cy="241.55209"
                   cx="44.552082"
                   id="path840-2"
                   style="display:inline;fill:#1a1a1a;fill-opacity:1;stroke-width:0.51851845" />
                <circle
                   transform="translate(6.2022454,-166.96852)"
                   r="2.5"
                   cy="241.55209"
                   cx="84.552086"
                   id="path840-6-9"
                   style="display:inline;fill:#1a1a1a;fill-opacity:1;stroke-width:0.51851845" />
                <path
                   transform="translate(6.2022454,-166.96852)"
                   inkscape:connector-curvature="0"
                   id="path2812-0-3"
                   d="m 64.552082,279.60521 c -2.610095,2.30865 -4.362398,4.86603 -16.038244,4.58562 -9.870033,-0.23702 -13.619779,-6.35404 -13.915817,-10.45284 -0.304578,-4.21708 0.92798,-6.37332 3.026882,-7.7616 2.085019,-1.37911 5.034346,-1.45192 6.34311,-0.55577 0.97395,0.66688 2.503185,2.05293 1.439316,2.70514 -1.17781,0.72207 -2.874374,-1.11873 -4.340881,0.34008 -2.898471,2.88325 0.162532,6.01491 2.905023,5.93238 3.470351,-0.10443 4.598766,-3.82253 10.667572,-7.47108 5.570121,-3.34874 9.929456,2.07357 9.913039,2.01952 -0.01641,0.0541 4.342919,-5.36826 9.91304,-2.01952 6.068806,3.64855 7.197222,7.36665 10.667573,7.47108 2.742491,0.0825 5.803493,-3.04913 2.905023,-5.93238 -1.466507,-1.45881 -3.163071,0.38199 -4.340881,-0.34008 -1.063868,-0.65221 0.465366,-2.03826 1.439316,-2.70514 1.308764,-0.89615 4.25809,-0.82334 6.343111,0.55577 2.0989,1.38828 3.331461,3.54452 3.026881,7.7616 -0.296038,4.0988 -4.045783,10.21582 -13.915817,10.45284 -11.675847,0.28041 -13.42815,-2.27697 -16.038246,-4.58562 z"
                   style="display:inline;fill:#1a1a1a;stroke:none;stroke-width:0.16666664" />
                <path
                   transform="translate(6.2022454,-166.96852)"
                   inkscape:connector-curvature="0"
                   id="rect1022"
                   d="m 68.195268,219.83905 h 32.102662 c 0.11171,0 0.20164,0.0899 0.20164,0.20165 v 10.59581 c 0,0.11171 -0.0899,0.20165 -0.20164,0.20165 H 68.195268 c -0.111712,0 -0.201646,-0.0899 -0.201646,-0.20165 V 220.0407 c 0,-0.11172 0.08993,-0.20165 0.201646,-0.20165 z"
                   style="display:inline;fill:#b3b3b3;fill-opacity:1;stroke-width:0.29442525" />
                <rect
                   transform="translate(6.2022454,-166.96852)"
                   ry="7.1815476"
                   y="245.97322"
                   x="27.308781"
                   height="14.363095"
                   width="73.421875"
                   id="rect857-1"
                   style="display:inline;fill:#b3b3b3;fill-opacity:1;stroke-width:0.72940588" />
                <path
                   inkscape:connector-curvature="0"
                   id="rect1022-6"
                   d="m 81.497531,49.403758 31.867119,3.225134 c 0.13119,0.01328 0.22613,0.129585 0.21285,0.260784 l -1.25939,12.443862 c -0.0133,0.131158 -0.12961,0.226103 -0.26076,0.212859 L 80.190225,62.321262 c -0.131199,-0.01328 -0.226127,-0.129589 -0.212851,-0.260777 l 1.259374,-12.443874 c 0.01328,-0.1312 0.129582,-0.226135 0.26078,-0.212856 z"
                   style="display:inline;fill:#b3b3b3;fill-opacity:1;stroke-width:0.31988356" />
                <path
                   inkscape:connector-curvature="0"
                   id="rect1022-6-3"
                   d="m 61.837295,48.969678 -31.816097,3.694668 c -0.130983,0.01521 -0.224192,0.132905 -0.20898,0.263893 l 1.44274,12.42394 c 0.0152,0.130949 0.132931,0.224168 0.263874,0.208991 l 31.816097,-3.694667 c 0.130988,-0.01521 0.224191,-0.132909 0.208982,-0.263888 L 62.101189,49.178662 c -0.01521,-0.130989 -0.132903,-0.224199 -0.263891,-0.208987 z"
                   style="display:inline;fill:#b3b3b3;fill-opacity:1;stroke-width:0.31988356" />
              </g>
              <g
                 style="display:inline"
                 transform="translate(34.822233,-78.688117)"
                 id="layer1-9"
                 inkscape:label="Layer 1">
                <path
                   transform="matrix(0.26458333,0,0,0.26458333,0,197)"
                   inkscape:connector-curvature="0"
                   id="path1581-4"
                   d=""
                   style="fill:#1a1a1a;fill-opacity:1;stroke-width:0.12626907" />
                <circle
                   r="0"
                   cy="321.22299"
                   cx="50"
                   id="path1743-7"
                   style="fill:#ff5555;fill-opacity:1;stroke-width:0.25157231" />
                <path
                   transform="matrix(0.26458333,0,0,0.26458333,-5.7180688,166.96852)"
                   inkscape:connector-curvature="0"
                   id="rect1529-8"
                   d="M 126.28906,0 C 84.411903,0 50.699219,33.712678 50.699219,75.589844 v 5.224609 c -10e-7,8e-6 -0.002,-7e-6 -0.002,0 v 78.083987 a 328.24143,151.17493 0.26854927 0 1 -36.355469,-16.3125 9.3874974,9.3874974 0 0 0 -1.490235,-0.75782 328.24143,151.17493 0.26854927 0 1 -0.08984,-0.0449 l -0.0059,0.0117 A 9.3874974,9.3874974 0 0 0 9.3867188,141.1582 9.3874974,9.3874974 0 0 0 0,150.54492 9.3874974,9.3874974 0 0 0 4.5644531,158.58594 328.24822,226.7577 0.6071102 0 0 50.875,191.93555 c 0.111424,0.15605 0.284976,0.26367 0.492188,0.26367 A 328.24822,226.7577 0.6071102 0 0 264.3418,246.67383 328.24822,226.7577 0.6071102 0 0 524.24023,156.98828 c 0.0317,-0.0201 0.0672,-0.032 0.0957,-0.0586 l 1.2539,-1.16797 a 328.24822,226.7577 0.6071102 0 0 0.22461,-0.20313 l -0.002,-0.004 0.90625,-0.84375 a 8.8004794,8.8004794 0 0 0 3.59961,-7.07813 8.8004794,8.8004794 0 0 0 -8.80078,-8.79883 8.8004794,8.8004794 0 0 0 -3.72852,0.84571 l -0.01,-0.0176 a 328.24143,151.17493 0.26854927 0 1 -45.06055,21.00391 V 127.9237 a 211.01053,110 0 0 0 0.002,-0.0371 211.01053,110 0 0 0 -0.002,-0.0176 V 98.150391 c 9e-5,-0.04768 0.002,-0.09487 0.002,-0.142579 V 75.589844 C 472.7207,33.712678 439.00607,0 397.12891,0 Z m 383.79688,149.12109 v 0.008 h -0.01 a 328.24822,226.7577 0.6071102 0 0 0.01,-0.008 z"
                   style="display:inline;fill:#1a1a1a;fill-opacity:1;stroke-width:0.89369893" />
              </g>
              <g
                 transform="translate(29.104164,88.280403)"
                 style="display:inline"
                 inkscape:label="Layer 4"
                 id="layer4-4" />
              <g
                 style="display:inline"
                 transform="translate(34.822233,118.31188)"
                 inkscape:label="Layer 2"
                 id="layer2-5">
                <path
                   inkscape:connector-curvature="0"
                   d="m 217.00781,457.91211 a 47.053463,38.214867 0 0 0 -9.0957,0.75781 76.430464,61.143787 0 0 0 -16.24609,24.26563 76.430464,61.143787 0 0 0 9.92187,49.25195 47.053463,38.214867 0 0 0 15.41992,2.1543 47.053463,38.214867 0 0 0 45.4375,-28.35352 20.414477,10.363803 0 0 0 8.33399,0.91211 20.414477,10.363803 0 0 0 6.34179,-0.52734 47.052881,38.214867 0 0 0 45.28125,27.96875 47.052881,38.214867 0 0 0 15.44336,-2.16211 76.42981,61.143787 0 0 0 12.50196,-33.41797 76.42981,61.143787 0 0 0 -18.88282,-40.12305 47.052881,38.214867 0 0 0 -9.0625,-0.72656 47.052881,38.214867 0 0 0 -45.54296,28.73242 20.414477,10.363803 0 0 0 -6.08008,-0.47265 20.414477,10.363803 0 0 0 -8.125,0.86914 47.053463,38.214867 0 0 0 -45.64649,-29.12891 z"
                   style="fill:#ff8800;fill-opacity:1;stroke-width:0.50171816"
                   transform="matrix(0.26458333,0,0,0.26458333,-6.2022453,-30.031479)"
                   id="path1724-0" />
                <rect
                   ry="1.076566e-06"
                   y="199.64146"
                   x="7.6975093"
                   height="8.2315359"
                   width="111.65676"
                   id="rect1707-3"
                   style="fill:#ff8800;fill-opacity:1;stroke-width:0.22085972"
                   transform="translate(1.0208333e-7,-197)" />
              </g>
            </g>
            <g
               id="g1364"
               transform="translate(-1292.926,1698.7282)">
              <g
                 inkscape:label="Layer 2"
                 id="layer2-2">
                <rect
                   transform="matrix(0,-1,-1,0,0,0)"
                   ry="0.11398904"
                   y="-2277.6062"
                   x="479.36685"
                   height="35"
                   width="76.352829"
                   id="rect1584-7-7-9-9-0"
                   style="fill:#ff8800;fill-opacity:1;stroke-width:0.03588567" />
                <path
                   id="path1654-3-2-6"
                   d="m 2260.1599,-682.25736 a 75.000006,75.000006 0 0 0 -75.0001,74.9998 75.000006,75.000006 0 0 0 75.0001,75.00021 75.000006,75.000006 0 0 0 74.9999,-75.00021 75.000006,75.000006 0 0 0 -74.9999,-74.9998 z m 0,32.96673 a 42.033003,42.033003 0 0 1 42.0332,42.03307 42.033003,42.033003 0 0 1 -42.0327,42.03308 42.033003,42.033003 0 0 1 -42.0332,-42.03308 42.033003,42.033003 0 0 1 42.0332,-42.03307 z"
                   style="fill:#ff8800;fill-opacity:1;stroke-width:0.1744507"
                   inkscape:connector-curvature="0" />
                <rect
                   transform="matrix(0,-1,-1,0,0,0)"
                   ry="0.11398904"
                   y="-2277.6062"
                   x="677.80438"
                   height="35"
                   width="76.352837"
                   id="rect1584-7-7-9-9-0-77"
                   style="display:inline;fill:#ff8800;fill-opacity:1;stroke-width:0.03588567" />
                <path
                   id="path1654-3-2-6-5"
                   d="m 3330.4294,-1633.0994 a 75.000006,75.000006 0 0 0 -75.0001,74.9998 75.000006,75.000006 0 0 0 75.0001,75.0002 75.000006,75.000006 0 0 0 74.9999,-75.0002 75.000006,75.000006 0 0 0 -74.9999,-74.9998 z m 0,32.9668 a 42.033002,42.033002 0 0 1 42.0332,42.033 42.033002,42.033002 0 0 1 -42.0327,42.0331 42.033002,42.033002 0 0 1 -42.0332,-42.0331 42.033002,42.033002 0 0 1 42.0332,-42.033 z"
                   style="display:inline;fill:#ff8800;fill-opacity:1;stroke-width:0.1744507"
                   inkscape:connector-curvature="0" />
                <rect
                   transform="matrix(0.57288676,-0.81963453,-0.81963453,-0.57288676,0,0)"
                   ry="0.11398904"
                   y="-1889.1948"
                   x="3227.5249"
                   height="35"
                   width="76.352844"
                   id="rect1584-7-7-9-9-0-77-9"
                   style="display:inline;fill:#ff8800;fill-opacity:1;stroke-width:0.03588567"
                   inkscape:transform-center-x="-36.380208"
                   inkscape:transform-center-y="26.458394" />
                <path
                   id="rect1584-8-3-2-2-7"
                   d="m 3031.4278,-1525.4788 -553.2324,248.6422 c -0.078,0.035 -0.1134,0.1269 -0.078,0.2057 l 19.4792,43.3421 c 0.035,0.078 0.1274,0.1135 0.2061,0.078 l 650.3006,-292.2681 z"
                   style="display:inline;fill:#ff8800;fill-opacity:1;stroke-width:0.17818384"
                   inkscape:connector-curvature="0" />
                <path
                   id="rect1584-2-2-7-7"
                   d="m 3275.6015,-1575.4788 c 0.09,0 0.1628,0.073 0.1628,0.1628 v 49.6745 c 0,0.09 -0.072,0.1627 -0.1628,0.1627 h -244.1737 l 111.2511,-50 z"
                   style="display:inline;fill:#ff8800;fill-opacity:1;stroke-width:0.07676534"
                   inkscape:connector-curvature="0" />
                <rect
                   transform="matrix(0.5,-0.8660254,-0.8660254,-0.5,0,0)"
                   ry="0.11398904"
                   y="-1462.337"
                   x="2367.4534"
                   height="35"
                   width="76.352837"
                   id="rect1584-7-7-9-9-0-6"
                   style="display:inline;fill:#1a0847;fill-opacity:1;stroke-width:0.03588567" />
                <path
                   id="path1654-3-2-6-7"
                   d="m 2536.4841,-1503.5379 a 75.000006,75.000006 0 0 0 -102.4519,27.4516 75.000006,75.000006 0 0 0 27.4519,102.4522 75.000006,75.000006 0 0 0 102.4519,-27.4522 75.000006,75.000006 0 0 0 -27.4519,-102.4516 z m -16.4834,28.55 a 42.033002,42.033002 0 0 1 15.3853,57.4183 42.033002,42.033002 0 0 1 -57.4179,15.3854 42.033002,42.033002 0 0 1 -15.3853,-57.4184 42.033002,42.033002 0 0 1 57.4183,-15.385 z"
                   style="display:inline;fill:#1a0847;fill-opacity:1;stroke-width:0.1744507"
                   inkscape:connector-curvature="0" />
                <rect
                   transform="matrix(0.5,-0.8660254,-0.8660254,-0.5,0,0)"
                   ry="0.11398904"
                   y="-1462.337"
                   x="2565.8909"
                   height="35"
                   width="76.352844"
                   id="rect1584-7-7-9-9-0-77-3"
                   style="display:inline;fill:#1a0847;fill-opacity:1;stroke-width:0.03588567" />
                <rect
                   transform="matrix(-0.5,-0.8660254,-0.8660254,0.5,0,0)"
                   ry="0.11398904"
                   y="-2496.1841"
                   x="102.20693"
                   height="35"
                   width="76.352844"
                   id="rect1584-7-7-9-9-0-6-3"
                   style="display:inline;fill:#1a0847;fill-opacity:1;stroke-width:0.03588567" />
                <path
                   id="path1654-3-2-6-7-9"
                   d="m 1994.101,-1503.591 a 75.000006,75.000006 0 0 0 -27.4522,102.4517 75.000006,75.000006 0 0 0 102.4522,27.4521 75.000006,75.000006 0 0 0 27.4516,-102.4521 75.000006,75.000006 0 0 0 -102.4516,-27.4517 z m 16.4833,28.55 a 42.033002,42.033002 0 0 1 57.4184,15.3851 42.033002,42.033002 0 0 1 -15.3848,57.4181 42.033002,42.033002 0 0 1 -57.4185,-15.3852 42.033002,42.033002 0 0 1 15.3854,-57.4182 z"
                   style="display:inline;fill:#1a0847;fill-opacity:1;stroke-width:0.1744507"
                   inkscape:connector-curvature="0" />
                <rect
                   transform="matrix(-0.5,-0.8660254,-0.8660254,0.5,0,0)"
                   ry="0.11398904"
                   y="-2496.1841"
                   x="300.64441"
                   height="35"
                   width="76.352844"
                   id="rect1584-7-7-9-9-0-77-3-4"
                   style="display:inline;fill:#1a0847;fill-opacity:1;stroke-width:0.03588567" />
                <path
                   id="path1654-3-2-6-5-8"
                   d="m 1236.072,-1587.9262 a 75.000006,75.000006 0 0 1 75.0001,74.9998 75.000006,75.000006 0 0 1 -75.0001,75.0002 75.000006,75.000006 0 0 1 -74.9999,-75.0002 75.000006,75.000006 0 0 1 74.9999,-74.9998 z m 0,32.9668 a 42.033002,42.033002 0 0 0 -42.0332,42.033 42.033002,42.033002 0 0 0 42.0327,42.0331 42.033002,42.033002 0 0 0 42.0332,-42.0331 42.033002,42.033002 0 0 0 -42.0332,-42.033 z"
                   style="display:inline;fill:#1a0847;fill-opacity:1;stroke-width:0.1744507"
                   inkscape:connector-curvature="0" />
                <rect
                   transform="rotate(-139.95177)"
                   ry="0.1024526"
                   y="1916.3088"
                   x="68.614212"
                   height="31.457769"
                   width="68.625435"
                   id="rect1584-7-7-9-9-0-77-9-1"
                   style="display:inline;fill:#1a0847;fill-opacity:1;stroke-width:0.0322538"
                   inkscape:transform-center-x="25.42907"
                   inkscape:transform-center-y="31.433288" />
                <path
                   id="rect1584-8-3-2-2-7-2"
                   d="m 1534.3825,-1488.4907 486.8345,218.8007 c 0.069,0.031 0.1,0.1116 0.069,0.181 l -17.1413,38.1403 c -0.031,0.069 -0.1121,0.1 -0.1814,0.069 l -572.2528,-257.1906 z"
                   style="display:inline;fill:#1a0847;fill-opacity:1;stroke-width:0.15679856"
                   inkscape:connector-curvature="0" />
                <path
                   id="rect1584-2-2-7-7-9"
                   d="m 1290.2088,-1538.4907 c -0.09,0 -0.1628,0.073 -0.1628,0.1628 v 49.6745 c 0,0.09 0.072,0.1627 0.1628,0.1627 h 244.1737 l -111.2511,-50 z"
                   style="display:inline;fill:#1a0847;fill-opacity:1;stroke-width:0.07676534"
                   inkscape:connector-curvature="0" />
              </g>
            </g>
          </g>
          <g
             style="display:inline"
             transform="matrix(3.8195494,0,0,3.8195494,304.37165,-272.30854)"
             id="layer1-7"
             inkscape:label="Layer 1">
            <path
               transform="matrix(0.26458333,0,0,0.26458333,0,197)"
               inkscape:connector-curvature="0"
               id="path1581"
               d=""
               style="fill:#1a1a1a;fill-opacity:1;stroke-width:0.12626907" />
            <circle
               r="0"
               cy="321.22299"
               cx="50"
               id="path1743"
               style="fill:#ff5555;fill-opacity:1;stroke-width:0.25157231" />
            <path
               transform="matrix(0.26458333,0,0,0.26458333,-5.7180688,166.96852)"
               inkscape:connector-curvature="0"
               id="rect1529"
               d="M 126.28906,0 C 84.411903,0 50.699219,33.712678 50.699219,75.589844 v 5.224609 c -10e-7,8e-6 -0.002,-7e-6 -0.002,0 v 78.083987 a 328.24143,151.17493 0.26854927 0 1 -36.355469,-16.3125 9.3874974,9.3874974 0 0 0 -1.490235,-0.75782 328.24143,151.17493 0.26854927 0 1 -0.08984,-0.0449 l -0.0059,0.0117 A 9.3874974,9.3874974 0 0 0 9.3867188,141.1582 9.3874974,9.3874974 0 0 0 0,150.54492 9.3874974,9.3874974 0 0 0 4.5644531,158.58594 328.24822,226.7577 0.6071102 0 0 50.875,191.93555 c 0.111424,0.15605 0.284976,0.26367 0.492188,0.26367 A 328.24822,226.7577 0.6071102 0 0 264.3418,246.67383 328.24822,226.7577 0.6071102 0 0 524.24023,156.98828 c 0.0317,-0.0201 0.0672,-0.032 0.0957,-0.0586 l 1.2539,-1.16797 a 328.24822,226.7577 0.6071102 0 0 0.22461,-0.20313 l -0.002,-0.004 0.90625,-0.84375 a 8.8004794,8.8004794 0 0 0 3.59961,-7.07813 8.8004794,8.8004794 0 0 0 -8.80078,-8.79883 8.8004794,8.8004794 0 0 0 -3.72852,0.84571 l -0.01,-0.0176 a 328.24143,151.17493 0.26854927 0 1 -45.06055,21.00391 V 127.9237 a 211.01053,110 0 0 0 0.002,-0.0371 211.01053,110 0 0 0 -0.002,-0.0176 V 98.150391 c 9e-5,-0.04768 0.002,-0.09487 0.002,-0.142579 V 75.589844 C 472.7207,33.712678 439.00607,0 397.12891,0 Z m 383.79688,149.12109 v 0.008 h -0.01 a 328.24822,226.7577 0.6071102 0 0 0.01,-0.008 z"
               style="display:inline;fill:#1a1a1a;fill-opacity:1;stroke-width:0.89369893" />
          </g>
          <g
             transform="translate(-416.61528,-42.538707)"
             style="display:inline"
             inkscape:label="Layer 4"
             id="layer4-5" />
          <g
             style="display:inline"
             transform="matrix(3.8195494,0,0,3.8195494,304.37165,480.14269)"
             inkscape:label="Layer 2"
             id="layer2">
            <path
               inkscape:connector-curvature="0"
               d="m 217.00781,457.91211 a 47.053463,38.214867 0 0 0 -9.0957,0.75781 76.430464,61.143787 0 0 0 -16.24609,24.26563 76.430464,61.143787 0 0 0 9.92187,49.25195 47.053463,38.214867 0 0 0 15.41992,2.1543 47.053463,38.214867 0 0 0 45.4375,-28.35352 20.414477,10.363803 0 0 0 8.33399,0.91211 20.414477,10.363803 0 0 0 6.34179,-0.52734 47.052881,38.214867 0 0 0 45.28125,27.96875 47.052881,38.214867 0 0 0 15.44336,-2.16211 76.42981,61.143787 0 0 0 12.50196,-33.41797 76.42981,61.143787 0 0 0 -18.88282,-40.12305 47.052881,38.214867 0 0 0 -9.0625,-0.72656 47.052881,38.214867 0 0 0 -45.54296,28.73242 20.414477,10.363803 0 0 0 -6.08008,-0.47265 20.414477,10.363803 0 0 0 -8.125,0.86914 47.053463,38.214867 0 0 0 -45.64649,-29.12891 z"
               style="fill:#ff8800;fill-opacity:1;stroke-width:0.50171816"
               transform="matrix(0.26458333,0,0,0.26458333,-6.2022453,-30.031479)"
               id="path1724" />
            <rect
               ry="1.076566e-06"
               y="199.64146"
               x="7.6975093"
               height="8.2315359"
               width="111.65676"
               id="rect1707"
               style="fill:#ff8800;fill-opacity:1;stroke-width:0.22085972"
               transform="translate(1.0208333e-7,-197)" />
          </g>
        </g>
      </g>
      <g
         transform="translate(-259.39164,-18.20798)"
         style="display:inline"
         inkscape:label="Layer 4"
         id="layer4" />
    </g>
  </g>
</svg>
