<?xml version="1.0" encoding="UTF-8" standalone="no"?>
<!-- Created with Inkscape (http://www.inkscape.org/) -->

<svg
   xmlns:dc="http://purl.org/dc/elements/1.1/"
   xmlns:cc="http://creativecommons.org/ns#"
   xmlns:rdf="http://www.w3.org/1999/02/22-rdf-syntax-ns#"
   xmlns:svg="http://www.w3.org/2000/svg"
   xmlns="http://www.w3.org/2000/svg"
   xmlns:sodipodi="http://sodipodi.sourceforge.net/DTD/sodipodi-0.dtd"
   xmlns:inkscape="http://www.inkscape.org/namespaces/inkscape"
   width="140.31319mm"
   height="141.37793mm"
   viewBox="0 0 140.31319 141.37793"
   version="1.1"
   id="svg8"
   inkscape:export-filename="/home/ace/bitmap.png"
   inkscape:export-xdpi="367.8891"
   inkscape:export-ydpi="367.8891"
   sodipodi:docname="new_logo.svg"
   inkscape:version="0.92.2 2405546, 2018-03-11">
  <defs
     id="defs2" />
  <sodipodi:namedview
     id="base"
     pagecolor="#ffffff"
     bordercolor="#666666"
     borderopacity="1.0"
     inkscape:pageopacity="0.0"
     inkscape:pageshadow="2"
     inkscape:zoom="1.4142136"
     inkscape:cx="299.37235"
     inkscape:cy="242.1312"
     inkscape:document-units="mm"
     inkscape:current-layer="layer1"
     showgrid="false"
     showguides="false"
     inkscape:window-width="2560"
     inkscape:window-height="1385"
     inkscape:window-x="1920"
     inkscape:window-y="27"
     inkscape:window-maximized="1" />
  <metadata
     id="metadata5">
    <rdf:RDF>
      <cc:Work
         rdf:about="">
        <dc:format>image/svg+xml</dc:format>
        <dc:type
           rdf:resource="http://purl.org/dc/dcmitype/StillImage" />
        <dc:title />
      </cc:Work>
    </rdf:RDF>
  </metadata>
  <g
     inkscape:groupmode="layer"
     id="layer5"
     inkscape:label="Sub"
     style="display:inline">
    <path
       style="display:inline;fill:#e79fe7;fill-opacity:1;stroke-width:1.41538453"
       d="M 246.5,38.341797 A 45.999997,45.999997 0 0 1 277.43555,50.369141 45.999997,45.999997 0 0 1 295,46.841797 45.999997,45.999997 0 0 1 328.08008,60.886719 45.999997,45.999997 0 0 1 344.5,57.841797 45.999997,45.999997 0 0 1 385.65625,83.332031 45.999997,45.999997 0 0 1 392,82.841797 45.999997,45.999997 0 0 1 433.83398,109.84961 45.999997,45.999997 0 0 1 465,153.3418 a 45.999997,45.999997 0 0 1 -46,46 A 45.999997,45.999997 0 0 1 377.93945,174.06445 128.5,45.999997 0 0 1 260,201.8418 128.5,45.999997 0 0 1 143.46484,175.09375 45.999997,45.999997 0 0 1 101.5,202.3418 a 45.999997,45.999997 0 0 1 -46,-46 45.999997,45.999997 0 0 1 46,-46 45.999997,45.999997 0 0 1 1.98242,0.0996 A 45.999997,45.999997 0 0 1 148.5,73.841797 45.999997,45.999997 0 0 1 155.10547,74.375 45.999997,45.999997 0 0 1 196,49.341797 45.999997,45.999997 0 0 1 213.18164,52.705078 45.999997,45.999997 0 0 1 246.5,38.341797 Z"
       id="path903"
       transform="scale(0.26458333)" />
    <path
       style="fill:#06063c;fill-opacity:1;stroke-width:0.02090064"
       d="M 232.02734 40.720703 A 45.999999 45.999999 0 0 0 219.16992 47.449219 L 186.71484 119.6582 L 186.71484 119.70508 L 177.75391 139.64453 L 177.75195 163.47266 C 177.75195 163.47266 177.76147 163.48034 177.76562 163.48828 C 177.76109 163.49395 177.75195 163.49402 177.75195 163.50195 L 177.75195 191.11914 A 128.5 45.999999 0 0 0 186.71484 193.56445 L 186.71484 163.50195 C 186.71484 163.49515 186.70728 163.49515 186.70312 163.49023 C 186.70766 163.48494 186.7168 163.49042 186.7168 163.47266 L 186.7168 141.53711 L 232.02734 40.720703 z M 295.48828 46.865234 L 329.0957 121.63672 L 329.0957 162.14062 A 20.390963 20.390963 0 0 0 312.92578 182.08203 A 20.390963 20.390963 0 0 0 319.07812 196.64844 A 128.5 45.999999 0 0 0 333.45117 193.50391 A 11.427911 11.427911 0 0 1 333.31641 193.50977 A 11.427911 11.427911 0 0 1 321.88867 182.08203 A 11.427911 11.427911 0 0 1 333.31641 170.6543 A 11.427911 11.427911 0 0 1 344.74414 182.08203 A 11.427911 11.427911 0 0 1 338.59961 192.20508 A 128.5 45.999999 0 0 0 352.95117 187.5 A 20.390963 20.390963 0 0 0 353.70703 182.08203 A 20.390963 20.390963 0 0 0 338.05859 162.27344 L 338.05859 119.74414 C 338.05859 119.72789 338.04555 119.71484 338.0293 119.71484 L 338.02344 119.71484 L 338.03125 119.71094 C 338.04624 119.71094 338.05481 119.67383 338.04688 119.67383 L 305.93164 48.21875 A 45.999999 45.999999 0 0 0 295.48828 46.865234 z M 175.72656 54.134766 A 45.999999 45.999999 0 0 0 160.45117 66.244141 L 136.45117 119.64453 L 136.45117 119.91797 A 20.390963 20.390963 0 0 0 133.25391 119.64062 A 20.390963 20.390963 0 0 0 112.86328 140.03125 A 20.390963 20.390963 0 0 0 133.25391 160.42383 A 20.390963 20.390963 0 0 0 153.64453 140.03125 A 20.390963 20.390963 0 0 0 144.70312 123.16406 L 175.72656 54.134766 z M 350.31641 58.257812 L 378.79883 121.63672 L 378.79883 175.57812 A 45.999999 45.999999 0 0 0 387.76367 187.02344 L 387.76367 119.74414 C 387.76367 119.72789 387.74754 119.71484 387.73242 119.71484 L 387.72852 119.71484 L 387.73633 119.71094 C 387.75243 119.71094 387.75951 119.67383 387.75195 119.67383 L 361.4375 61.123047 A 45.999999 45.999999 0 0 0 350.31641 58.257812 z M 261.67969 59.871094 A 20.390963 20.390963 0 0 0 241.28906 80.261719 A 20.390963 20.390963 0 0 0 257.45898 100.20312 L 257.45898 201.79297 A 128.5 45.999999 0 0 0 259.99805 201.83984 A 128.5 45.999999 0 0 0 266.42188 201.76758 L 266.42188 100.07031 A 20.390963 20.390963 0 0 0 282.07031 80.261719 A 20.390963 20.390963 0 0 0 261.67969 59.871094 z M 261.67969 68.833984 A 11.427911 11.427911 0 0 1 273.10742 80.261719 A 11.427911 11.427911 0 0 1 261.67969 91.689453 A 11.427911 11.427911 0 0 1 250.25195 80.261719 A 11.427911 11.427911 0 0 1 261.67969 68.833984 z M 133.25391 128.60352 A 11.427911 11.427911 0 0 1 144.68164 140.0332 A 11.427911 11.427911 0 0 1 133.25391 151.46094 A 11.427911 11.427911 0 0 1 121.82617 140.0332 A 11.427911 11.427911 0 0 1 121.82617 140.03125 A 11.427911 11.427911 0 0 1 133.25391 128.60352 z "
       transform="scale(0.26458333)"
       id="rect1584" />
  </g>
  <g
     inkscape:groupmode="layer"
     id="layer3"
     inkscape:label="Layer 3"
     transform="translate(-0.4841765,-1.1181641e-6)"
     style="display:inline">
    <path
       style="display:inline;fill:#b3b3b3;fill-opacity:1;stroke-width:1.13790214"
       d="m 29.800781,169.3418 c -5.262688,11.78727 -8.189453,24.86406 -8.189453,38.65039 v 188.97656 c 0,52.34646 42.141827,94.48829 94.488282,94.48828 h 300.4043 c 52.34645,0 94.48828,-42.14182 94.48828,-94.48828 V 207.99219 c 0,-13.78699 -2.92556,-26.8634 -8.18946,-38.65039 z"
       id="rect815"
       inkscape:connector-curvature="0"
       transform="matrix(0.26458333,0,0,0.26458333,0.4841765,1.1181641e-6)" />
    <circle
       style="display:inline;fill:#ffffff;fill-opacity:1;stroke-width:0.3193489"
       id="path817"
       cx="44.552082"
       cy="241.55209"
       r="10"
       transform="translate(6.2022454,-166.96852)" />
    <circle
       style="display:inline;fill:#ffffff;fill-opacity:1;stroke-width:0.3193489"
       id="path817-3"
       cx="84.552086"
       cy="241.55209"
       r="10"
       transform="translate(6.2022454,-166.96852)" />
    <circle
       style="display:inline;fill:#1a1a1a;fill-opacity:1;stroke-width:0.51851845"
       id="path840"
       cx="44.552082"
       cy="241.55209"
       r="2.5"
       transform="translate(6.2022454,-166.96852)" />
    <circle
       style="display:inline;fill:#1a1a1a;fill-opacity:1;stroke-width:0.51851845"
       id="path840-6"
       cx="84.552086"
       cy="241.55209"
       r="2.5"
       transform="translate(6.2022454,-166.96852)" />
    <path
       style="display:inline;fill:#1a1a1a;stroke:none;stroke-width:0.16666664"
       d="m 64.552082,279.60521 c -2.610095,2.30865 -4.362398,4.86603 -16.038244,4.58562 -9.870033,-0.23702 -13.619779,-6.35404 -13.915817,-10.45284 -0.304578,-4.21708 0.92798,-6.37332 3.026882,-7.7616 2.085019,-1.37911 5.034346,-1.45192 6.34311,-0.55577 0.97395,0.66688 2.503185,2.05293 1.439316,2.70514 -1.17781,0.72207 -2.874374,-1.11873 -4.340881,0.34008 -2.898471,2.88325 0.162532,6.01491 2.905023,5.93238 3.470351,-0.10443 4.598766,-3.82253 10.667572,-7.47108 5.570121,-3.34874 9.929456,2.07357 9.913039,2.01952 -0.01641,0.0541 4.342919,-5.36826 9.91304,-2.01952 6.068806,3.64855 7.197222,7.36665 10.667573,7.47108 2.742491,0.0825 5.803493,-3.04913 2.905023,-5.93238 -1.466507,-1.45881 -3.163071,0.38199 -4.340881,-0.34008 -1.063868,-0.65221 0.465366,-2.03826 1.439316,-2.70514 1.308764,-0.89615 4.25809,-0.82334 6.343111,0.55577 2.0989,1.38828 3.331461,3.54452 3.026881,7.7616 -0.296038,4.0988 -4.045783,10.21582 -13.915817,10.45284 -11.675847,0.28041 -13.42815,-2.27697 -16.038246,-4.58562 z"
       id="path2812-0"
       inkscape:connector-curvature="0"
       transform="translate(6.2022454,-166.96852)" />
    <path
       style="display:inline;fill:#b3b3b3;fill-opacity:1;stroke-width:0.29442525"
       d="m 68.195268,219.83905 h 32.102662 c 0.11171,0 0.20164,0.0899 0.20164,0.20165 v 10.59581 c 0,0.11171 -0.0899,0.20165 -0.20164,0.20165 H 68.195268 c -0.111712,0 -0.201646,-0.0899 -0.201646,-0.20165 V 220.0407 c 0,-0.11172 0.08993,-0.20165 0.201646,-0.20165 z"
       id="rect1022"
       inkscape:connector-curvature="0"
       transform="translate(6.2022454,-166.96852)" />
    <rect
       style="display:inline;fill:#b3b3b3;fill-opacity:1;stroke-width:0.72940588"
       id="rect857"
       width="73.421875"
       height="14.363095"
       x="27.308781"
       y="245.97322"
       ry="7.1815476"
       transform="translate(6.2022454,-166.96852)" />
    <path
       style="display:inline;fill:#b3b3b3;fill-opacity:1;stroke-width:0.31988356"
       d="m 81.497531,49.403758 31.867119,3.225134 c 0.13119,0.01328 0.22613,0.129585 0.21285,0.260784 l -1.25939,12.443862 c -0.0133,0.131158 -0.12961,0.226103 -0.26076,0.212859 L 80.190225,62.321262 c -0.131199,-0.01328 -0.226127,-0.129589 -0.212851,-0.260777 l 1.259374,-12.443874 c 0.01328,-0.1312 0.129582,-0.226135 0.26078,-0.212856 z"
       id="rect1022-6"
       inkscape:connector-curvature="0" />
    <path
       style="display:inline;fill:#b3b3b3;fill-opacity:1;stroke-width:0.31988356"
       d="m 61.837295,48.969678 -31.816097,3.694668 c -0.130983,0.01521 -0.224192,0.132905 -0.20898,0.263893 l 1.44274,12.42394 c 0.0152,0.130949 0.132931,0.224168 0.263874,0.208991 l 31.816097,-3.694667 c 0.130988,-0.01521 0.224191,-0.132909 0.208982,-0.263888 L 62.101189,49.178662 c -0.01521,-0.130989 -0.132903,-0.224199 -0.263891,-0.208987 z"
       id="rect1022-6-3"
       inkscape:connector-curvature="0" />
  </g>
  <g
     inkscape:label="Layer 1"
     inkscape:groupmode="layer"
     id="layer1"
     transform="translate(5.7180688,-166.96852)"
     style="display:inline">
    <path
       style="fill:#1a1a1a;fill-opacity:1;stroke-width:0.12626907"
       d=""
       id="path1581"
       inkscape:connector-curvature="0"
       transform="matrix(0.26458333,0,0,0.26458333,0,197)" />
    <circle
       style="fill:#ff5555;fill-opacity:1;stroke-width:0.25157231"
       id="path1743"
       cx="50"
       cy="321.22299"
       r="0" />
    <path
       style="display:inline;fill:#1a1a1a;fill-opacity:1;stroke-width:0.89369893"
       d="M 126.28906,0 C 84.411903,0 50.699219,33.712678 50.699219,75.589844 v 5.224609 c -10e-7,8e-6 -0.002,-7e-6 -0.002,0 v 78.083987 a 328.24143,151.17493 0.26854927 0 1 -36.355469,-16.3125 9.3874974,9.3874974 0 0 0 -1.490235,-0.75782 328.24143,151.17493 0.26854927 0 1 -0.08984,-0.0449 l -0.0059,0.0117 A 9.3874974,9.3874974 0 0 0 9.3867188,141.1582 9.3874974,9.3874974 0 0 0 0,150.54492 9.3874974,9.3874974 0 0 0 4.5644531,158.58594 328.24822,226.7577 0.6071102 0 0 50.875,191.93555 c 0.111424,0.15605 0.284976,0.26367 0.492188,0.26367 A 328.24822,226.7577 0.6071102 0 0 264.3418,246.67383 328.24822,226.7577 0.6071102 0 0 524.24023,156.98828 c 0.0317,-0.0201 0.0672,-0.032 0.0957,-0.0586 l 1.2539,-1.16797 a 328.24822,226.7577 0.6071102 0 0 0.22461,-0.20313 l -0.002,-0.004 0.90625,-0.84375 a 8.8004794,8.8004794 0 0 0 3.59961,-7.07813 8.8004794,8.8004794 0 0 0 -8.80078,-8.79883 8.8004794,8.8004794 0 0 0 -3.72852,0.84571 l -0.01,-0.0176 a 328.24143,151.17493 0.26854927 0 1 -45.06055,21.00391 V 127.9237 a 211.01053,110 0 0 0 0.002,-0.0371 211.01053,110 0 0 0 -0.002,-0.0176 V 98.150391 c 9e-5,-0.04768 0.002,-0.09487 0.002,-0.142579 V 75.589844 C 472.7207,33.712678 439.00607,0 397.12891,0 Z m 383.79688,149.12109 v 0.008 h -0.01 a 328.24822,226.7577 0.6071102 0 0 0.01,-0.008 z"
       id="rect1529"
       inkscape:connector-curvature="0"
       transform="matrix(0.26458333,0,0,0.26458333,-5.7180688,166.96852)" />
  </g>
  <g
     inkscape:groupmode="layer"
     id="layer4"
     inkscape:label="Layer 4"
     style="display:inline" />
  <g
     inkscape:groupmode="layer"
     id="layer2"
     inkscape:label="Layer 2"
     transform="translate(5.7180688,30.031477)"
     style="display:inline">
    <path
       id="path1724"
       transform="matrix(0.26458333,0,0,0.26458333,-6.2022453,-30.031479)"
       style="fill:#ff8800;fill-opacity:1;stroke-width:0.50171816"
       d="m 217.00781,457.91211 a 47.053463,38.214867 0 0 0 -9.0957,0.75781 76.430464,61.143787 0 0 0 -16.24609,24.26563 76.430464,61.143787 0 0 0 9.92187,49.25195 47.053463,38.214867 0 0 0 15.41992,2.1543 47.053463,38.214867 0 0 0 45.4375,-28.35352 20.414477,10.363803 0 0 0 8.33399,0.91211 20.414477,10.363803 0 0 0 6.34179,-0.52734 47.052881,38.214867 0 0 0 45.28125,27.96875 47.052881,38.214867 0 0 0 15.44336,-2.16211 76.42981,61.143787 0 0 0 12.50196,-33.41797 76.42981,61.143787 0 0 0 -18.88282,-40.12305 47.052881,38.214867 0 0 0 -9.0625,-0.72656 47.052881,38.214867 0 0 0 -45.54296,28.73242 20.414477,10.363803 0 0 0 -6.08008,-0.47265 20.414477,10.363803 0 0 0 -8.125,0.86914 47.053463,38.214867 0 0 0 -45.64649,-29.12891 z"
       inkscape:connector-curvature="0" />
    <rect
       transform="translate(1.0208333e-7,-197)"
       style="fill:#ff8800;fill-opacity:1;stroke-width:0.22085972"
       id="rect1707"
       width="111.65676"
       height="8.2315359"
       x="7.6975093"
       y="199.64146"
       ry="1.076566e-06" />
    <circle
       style="display:inline;fill:#ffffff;fill-opacity:1;stroke-width:0.3193489"
       id="path817-5"
       cx="189.73447"
       cy="44.334461"
       r="10" />
    <circle
       style="display:inline;fill:#ffffff;fill-opacity:1;stroke-width:0.3193489"
       id="path817-3-3"
       cx="229.73447"
       cy="44.334461"
       r="10" />
    <circle
       style="display:inline;fill:#1a1a1a;fill-opacity:1;stroke-width:0.51851845"
       id="path840-5"
       cx="189.73447"
       cy="44.334461"
       r="2.5" />
    <circle
       style="display:inline;fill:#1a1a1a;fill-opacity:1;stroke-width:0.51851845"
       id="path840-6-6"
       cx="229.73447"
       cy="44.334461"
       r="2.5" />
    <path
       id="path1724-9"
       style="display:inline;fill:#ff8800;fill-opacity:1;stroke-width:0.13274626"
       d="m 196.39679,90.906794 a 12.449562,10.111017 0 0 0 -2.40657,0.20051 20.222227,16.177627 0 0 0 -4.29844,6.42028 20.222227,16.177627 0 0 0 2.62516,13.031236 12.449562,10.111017 0 0 0 4.07985,0.56999 12.449562,10.111017 0 0 0 12.02201,-7.50186 5.4013304,2.7420895 0 0 0 2.20503,0.24133 5.4013304,2.7420895 0 0 0 1.67794,-0.13953 12.449408,10.111017 0 0 0 11.98066,7.40006 12.449408,10.111017 0 0 0 4.08606,-0.57205 20.222054,16.177627 0 0 0 3.30781,-8.84184 20.222054,16.177627 0 0 0 -4.99608,-10.615886 12.449408,10.111017 0 0 0 -2.39779,-0.19224 12.449408,10.111017 0 0 0 -12.04991,7.60212 5.4013304,2.7420895 0 0 0 -1.60869,-0.12505 5.4013304,2.7420895 0 0 0 -2.14974,0.22996 12.449562,10.111017 0 0 0 -12.0773,-7.70703 z"
       inkscape:connector-curvature="0" />
  </g>
</svg>
