<?xml version="1.0" encoding="UTF-8" standalone="no"?>
<!-- Created with Inkscape (http://www.inkscape.org/) -->

<svg
   xmlns:dc="http://purl.org/dc/elements/1.1/"
   xmlns:cc="http://creativecommons.org/ns#"
   xmlns:rdf="http://www.w3.org/1999/02/22-rdf-syntax-ns#"
   xmlns:svg="http://www.w3.org/2000/svg"
   xmlns="http://www.w3.org/2000/svg"
   xmlns:sodipodi="http://sodipodi.sourceforge.net/DTD/sodipodi-0.dtd"
   xmlns:inkscape="http://www.inkscape.org/namespaces/inkscape"
   width="140.31319mm"
   height="141.37793mm"
   viewBox="0 0 140.31319 141.37793"
   version="1.1"
   id="svg8"
   inkscape:export-filename="/home/ace/bitmap.png"
   inkscape:export-xdpi="367.8891"
   inkscape:export-ydpi="367.8891"
   sodipodi:docname="new_logo.svg.2018_07_08_00_48_26.0.svg"
   inkscape:version="0.92.2 2405546, 2018-03-11">
  <defs
     id="defs2" />
  <sodipodi:namedview
     id="base"
     pagecolor="#ffffff"
     bordercolor="#666666"
     borderopacity="1.0"
     inkscape:pageopacity="0.0"
     inkscape:pageshadow="2"
     inkscape:zoom="2"
     inkscape:cx="304.01259"
     inkscape:cy="276.80575"
     inkscape:document-units="mm"
     inkscape:current-layer="layer2"
     showgrid="false"
     showguides="false"
     inkscape:window-width="2560"
     inkscape:window-height="1380"
     inkscape:window-x="1920"
     inkscape:window-y="28"
     inkscape:window-maximized="1" />
  <metadata
     id="metadata5">
    <rdf:RDF>
      <cc:Work
         rdf:about="">
        <dc:format>image/svg+xml</dc:format>
        <dc:type
           rdf:resource="http://purl.org/dc/dcmitype/StillImage" />
        <dc:title />
      </cc:Work>
    </rdf:RDF>
  </metadata>
  <g
     inkscape:groupmode="layer"
     id="layer3"
     inkscape:label="Layer 3"
     transform="translate(-0.4841765,-1.1181641e-6)">
    <rect
       transform="translate(6.2022453,-166.96852)"
       style="fill:#1a1a1a;fill-opacity:1;stroke-width:0.16839056"
       id="rect1529-7"
       width="111.65974"
       height="23.293646"
       x="7.6957545"
       y="188.29706"
       ry="0.05380955"
       rx="25" />
  </g>
  <g
     inkscape:label="Layer 1"
     inkscape:groupmode="layer"
     id="layer1"
     transform="translate(5.7180688,-166.96852)">
    <path
       style="fill:#b3b3b3;fill-opacity:1;stroke-width:1.13790214"
       d="M 94.488281,0 C 73.257301,0 53.705739,6.9341318 37.962891,18.667969 h 16.410156 c 0.340967,0 0.615234,0.274267 0.615234,0.615234 v 35.814453 c 0,0.340967 -0.274267,0.617188 -0.615234,0.617188 H 8.2421875 C 2.945142,67.533859 0,80.654363 0,94.488281 V 283.46484 c 0,52.34646 42.141826,94.48829 94.488281,94.48828 H 394.89258 c 52.34645,0 94.48828,-42.14182 94.48828,-94.48828 V 94.488281 c 0,-16.996546 -4.44587,-32.914389 -12.23828,-46.666015 v 6.658203 c 0,0.340967 -0.27427,0.615234 -0.61524,0.615234 h -53.05468 c -0.34097,0 -0.61524,-0.274267 -0.61524,-0.615234 V 4.1777344 C 414.02644,1.4632224 404.63677,0 394.89258,0 Z"
       transform="matrix(0.26458333,0,0,0.26458333,0,197)"
       id="rect815"
       inkscape:connector-curvature="0" />
    <circle
       style="fill:#ffffff;fill-opacity:1;stroke-width:0.3193489"
       id="path817"
       cx="44.552082"
       cy="241.55209"
       r="10" />
    <circle
       style="fill:#ffffff;fill-opacity:1;stroke-width:0.3193489"
       id="path817-3"
       cx="84.552086"
       cy="241.55209"
       r="10" />
    <circle
       style="fill:#1a1a1a;fill-opacity:1;stroke-width:0.51851845"
       id="path840"
       cx="44.552082"
       cy="241.55209"
       r="2.5" />
    <circle
       style="fill:#1a1a1a;fill-opacity:1;stroke-width:0.51851845"
       id="path840-6"
       cx="84.552086"
       cy="241.55209"
       r="2.5" />
    <rect
       style="fill:#b3b3b3;fill-opacity:1;stroke-width:0.72940588"
       id="rect857"
       width="73.421875"
       height="14.363095"
       x="27.308781"
       y="245.97322"
       ry="7.1815476" />
    <path
       inkscape:connector-curvature="0"
       id="path2812-0"
       style="fill:#1a1a1a;stroke:none;stroke-width:0.16666664"
       d="m 64.552082,279.60521 c -2.610095,2.30865 -4.362398,4.86603 -16.038244,4.58562 -9.870033,-0.23702 -13.619779,-6.35404 -13.915817,-10.45284 -0.304578,-4.21708 0.92798,-6.37332 3.026882,-7.7616 2.085019,-1.37911 5.034346,-1.45192 6.34311,-0.55577 0.97395,0.66688 2.503185,2.05293 1.439316,2.70514 -1.17781,0.72207 -2.874374,-1.11873 -4.340881,0.34008 -2.898471,2.88325 0.162532,6.01491 2.905023,5.93238 3.470351,-0.10443 4.598766,-3.82253 10.667572,-7.47108 5.570121,-3.34874 9.929456,2.07357 9.913039,2.01952 -0.01641,0.0541 4.342919,-5.36826 9.91304,-2.01952 6.068806,3.64855 7.197222,7.36665 10.667573,7.47108 2.742491,0.0825 5.803493,-3.04913 2.905023,-5.93238 -1.466507,-1.45881 -3.163071,0.38199 -4.340881,-0.34008 -1.063868,-0.65221 0.465366,-2.03826 1.439316,-2.70514 1.308764,-0.89615 4.25809,-0.82334 6.343111,0.55577 2.0989,1.38828 3.331461,3.54452 3.026881,7.7616 -0.296038,4.0988 -4.045783,10.21582 -13.915817,10.45284 -11.675847,0.28041 -13.42815,-2.27697 -16.038246,-4.58562 z"
       sodipodi:nodetypes="csssssssscssssssssc"
       inkscape:export-filename="C:\Users\Heather\Documents\Cricut\people and characters\IHM mustache.png"
       inkscape:export-xdpi="142.34"
       inkscape:export-ydpi="142.34" />
    <rect
       style="fill:#1a1a1a;fill-opacity:1;stroke-width:0.23645784"
       id="rect1529"
       width="111.65974"
       height="45.931374"
       x="7.6959648"
       y="166.96852"
       ry="20"
       rx="20" />
    <ellipse
       style="fill:#1a1a1a;fill-opacity:1;stroke-width:0.27909127"
       id="path1531"
       cx="63.525833"
       cy="200.80505"
       rx="55.829868"
       ry="29.104166" />
    <path
       style="fill:#1a1a1a;fill-opacity:1;stroke-width:0.12626907"
       d=""
       id="path1581"
       inkscape:connector-curvature="0"
       transform="matrix(0.26458333,0,0,0.26458333,0,197)" />
    <rect
       style="fill:#ff5555;fill-opacity:1;stroke-width:0.22085972"
       id="rect1707"
       width="111.65676"
       height="8.2315359"
       x="7.6975093"
       y="199.64146"
       ry="1.076566e-06" />
    <circle
       style="fill:#ff5555;fill-opacity:1;stroke-width:0.25157231"
       id="path1743"
       cx="50"
       cy="321.22299"
       r="0" />
    <path
       style="fill:#b3b3b3;fill-opacity:1;stroke-width:0.29442525"
       d="m 68.195268,219.83905 h 32.102662 c 0.11171,0 0.20164,0.0899 0.20164,0.20165 v 10.59581 c 0,0.11171 -0.0899,0.20165 -0.20164,0.20165 H 68.195268 c -0.111712,0 -0.201646,-0.0899 -0.201646,-0.20165 V 220.0407 c 0,-0.11172 0.08993,-0.20165 0.201646,-0.20165 z"
       id="rect1022"
       inkscape:connector-curvature="0" />
  </g>
  <g
     inkscape:groupmode="layer"
     id="layer2"
     inkscape:label="Layer 2"
     transform="translate(5.7180688,30.031477)">
    <path
       style="fill:#1a1a1a;fill-opacity:1;stroke-width:0.81842959"
       d="M 519.60938,139.66211 A 328.24143,151.17493 0.26854927 0 1 266.16992,195.86133 328.24143,151.17493 0.26854927 0 1 14.591797,141.7832 l -1.421875,2.87305 A 328.24822,226.7577 0.6071102 0 0 91.90625,192.19531 328.24143,151.17493 0.26854927 0 1 6.9765625,157.1582 l -0.671875,1.35547 A 328.24822,226.7577 0.6071102 0 0 266.17188,246.67383 328.24822,226.7577 0.6071102 0 0 527.64453,155.55859 Z m -0.45508,3.69727 v 0.20117 h -0.25196 a 328.24822,226.7577 0.6071102 0 0 0.25196,-0.20117 z m -3.125,2.48828 v 0.36328 h -0.45508 a 328.24822,226.7577 0.6071102 0 0 0.45508,-0.36328 z m -4.11328,3.27343 v 0.008 h -0.01 a 328.24822,226.7577 0.6071102 0 0 0.01,-0.008 z"
       transform="matrix(0.26458333,0,0,0.26458333,-6.2022453,-30.031478)"
       id="path884-5"
       inkscape:connector-curvature="0" />
    <path
       transform="translate(-1.0416668e-8,-197)"
       style="fill:#b3b3b3;fill-opacity:1;stroke-width:0.31988356"
       d="m 68.462727,245.97322 h 32.029903 c 0.13186,0 0.23802,0.10616 0.23802,0.23803 v 12.50743 c 0,0.13186 -0.10616,0.23802 -0.23802,0.23802 H 68.462727 c -0.131867,0 -0.238026,-0.10616 -0.238026,-0.23802 v -12.50743 c 0,-0.13187 0.106159,-0.23803 0.238026,-0.23803 z"
       id="rect1022-6"
       inkscape:connector-curvature="0" />
    <path
       id="path1724"
       transform="matrix(0.26458333,0,0,0.26458333,-6.2022453,-30.031479)"
       style="fill:#ff5555;fill-opacity:1;stroke-width:0.50171816"
       d="m 217.00781,457.91211 a 47.053463,38.214867 0 0 0 -9.0957,0.75781 76.430464,61.143787 0 0 0 -16.24609,24.26563 76.430464,61.143787 0 0 0 9.92187,49.25195 47.053463,38.214867 0 0 0 15.41992,2.1543 47.053463,38.214867 0 0 0 45.4375,-28.35352 20.414477,10.363803 0 0 0 8.33399,0.91211 20.414477,10.363803 0 0 0 6.34179,-0.52734 47.052881,38.214867 0 0 0 45.28125,27.96875 47.052881,38.214867 0 0 0 15.44336,-2.16211 76.42981,61.143787 0 0 0 12.50196,-33.41797 76.42981,61.143787 0 0 0 -18.88282,-40.12305 47.052881,38.214867 0 0 0 -9.0625,-0.72656 47.052881,38.214867 0 0 0 -45.54296,28.73242 20.414477,10.363803 0 0 0 -6.08008,-0.47265 20.414477,10.363803 0 0 0 -8.125,0.86914 47.053463,38.214867 0 0 0 -45.64649,-29.12891 z"
       inkscape:connector-curvature="0" />
    <path
       id="rect1086"
       style="fill:#1a1a1a;fill-opacity:1;stroke-width:0.26458332"
       d="m -0.48315386,10.044107 h 0.69957742 c 0.0902142,0 0.16284151,0.07263 0.16284151,0.162842 v 0.468067 c 0,0.09021 -0.0726273,0.162841 -0.16284151,0.162841 h -0.69957742 c -0.0902142,0 -0.16284152,-0.07263 -0.16284152,-0.162841 v -0.468067 c 0,-0.09021 0.0726273,-0.162842 0.16284152,-0.162842 z M -1.4918778,9.0684566 h 1.04684298 c 0.0902142,0 0.16284152,0.072627 0.16284152,0.1628416 v 1.5925458 c 0,0.09021 -0.0726273,0.162842 -0.16284152,0.162842 H -1.4918778 c -0.090214,0 -0.1628416,-0.07263 -0.1628416,-0.162842 V 9.2312982 c 0,-0.090214 0.072627,-0.1628416 0.1628416,-0.1628416 z m -2.017448,2.4804684 h 0.3688482 c 0.090214,0 0.1628416,0.07263 0.1628416,0.162842 v 0.749187 c 0,0.09021 -0.072627,0.162841 -0.1628416,0.162841 h -0.3688482 c -0.090214,0 -0.1628415,-0.07263 -0.1628415,-0.162841 v -0.749187 c 0,-0.09021 0.072627,-0.162842 0.1628415,-0.162842 z m 0.3803387,-0.231511 h 0.6003586 c 0.090214,0 0.1628415,0.07263 0.1628415,0.162842 v 1.146062 c 0,0.09021 -0.072627,0.162841 -0.1628415,0.162841 h -0.6003586 c -0.090214,0 -0.1628415,-0.07263 -0.1628415,-0.162841 v -1.146062 c 0,-0.09021 0.072627,-0.162842 0.1628415,-0.162842 z m 0.5787759,-0.330728 h 1.0799159 c 0.090214,0 0.1628415,0.07263 0.1628415,0.162841 v 1.972885 c 0,0.09021 -0.072627,0.162842 -0.1628415,0.162842 h -1.0799159 c -0.090214,0 -0.1628415,-0.07263 -0.1628415,-0.162842 v -1.972885 c 0,-0.09021 0.072627,-0.162841 0.1628415,-0.162841 z m 1.8851563,1.984375 h 2.1878587 c 0.090214,0 0.1628415,0.07263 0.1628415,0.162841 v 1.278354 c 0,0.09021 -0.072627,0.162841 -0.1628415,0.162841 h -2.1878587 c -0.0902142,0 -0.16284152,-0.07263 -0.16284152,-0.162841 v -1.278354 c 0,-0.09021 0.0726273,-0.162841 0.16284152,-0.162841 z m 1.8686197,-1.372526 h 5.2140299 c 0.09022,0 0.162842,0.07263 0.162842,0.162841 v 4.271453 c 0,0.09021 -0.07263,0.162841 -0.162842,0.162841 H 1.2035648 c -0.090214,0 -0.1628415,-0.07263 -0.1628415,-0.162841 v -4.271453 c 0,-0.09021 0.072627,-0.162841 0.1628415,-0.162841 z M -0.75051808,9.8003635 A 2.4837754,2.4837754 0 0 1 -3.2342935,12.284139 2.4837754,2.4837754 0 0 1 -5.7180688,9.8003635 2.4837754,2.4837754 0 0 1 -3.2342935,7.3165882 2.4837754,2.4837754 0 0 1 -0.75051808,9.8003635 Z M 7.8728306,16.678732 H 18.323874 c 0.09021,0 0.162842,0.0726 0.162842,0.16284 v 3.81699 c 0,0.0902 -0.07263,0.16284 -0.162842,0.16284 H 7.8728306 c -0.090214,0 -0.1628415,-0.0726 -0.1628415,-0.16284 v -3.81699 c 0,-0.0902 0.072627,-0.16284 0.1628415,-0.16284 z M 3.686486,14.741012 h 10.699738 c 0.09021,0 0.162842,0.0726 0.162842,0.16284 v 2.58088 c 0,0.0902 -0.07263,0.16284 -0.162842,0.16284 H 3.686486 c -0.090214,0 -0.1628416,-0.0726 -0.1628416,-0.16284 v -2.58088 c 0,-0.0902 0.072627,-0.16284 0.1628416,-0.16284 z m -5.6413847,-4.233885 h 3.6265305 c 0.090214,0 0.1628415,0.07263 0.1628415,0.162841 v 2.733562 c 0,0.09021 -0.072627,0.162842 -0.1628415,0.162842 h -3.6265305 c -0.090214,0 -0.1628415,-0.07263 -0.1628415,-0.162842 v -2.733562 c 0,-0.09021 0.072627,-0.162841 0.1628415,-0.162841 z"
       inkscape:connector-curvature="0" />
    <path
       style="fill:#1a1a1a;fill-opacity:1;stroke-width:0.24803844"
       d="m 132.26672,6.7015093 a 2.3284602,2.3284602 0 0 0 -2.22203,1.6422017 h -0.39278 c -0.0426,0 -0.0807,0.017493 -0.10845,0.045377 v 5.117197 h 0.31463 c 0.0846,0 0.15277,-0.0682 0.15277,-0.152777 V 12.56039 h 1.05682 c 0.0846,0 0.15227,-0.0682 0.15227,-0.152772 v -0.110424 h 0.4054 c 0.0846,0 0.15276,-0.0682 0.15276,-0.152774 v -0.312607 h 0.39026 c 0.0846,0 0.15227,-0.06822 0.15227,-0.152775 v -0.0021 h 0.2042 c 0.0846,0 0.15278,-0.0682 0.15278,-0.152776 v -0.204205 a 2.3284602,2.3284602 0 0 0 1.9175,-2.2901064 2.3284602,2.3284602 0 0 0 -2.32844,-2.3284262 z"
       id="rect1086-3"
       inkscape:connector-curvature="0" />
    <rect
       style="fill:#1a1a1a;fill-opacity:1;stroke-width:0.26458332"
       id="rect1122"
       width="1.7422632"
       height="1.5785607"
       x="89.385483"
       y="97.443581"
       ry="0.16284151"
       transform="rotate(-42.939161)" />
  </g>
</svg>
